Lifestyle : Astrology	AYRIAL: Feng Shui Tips	4.5	8	https://www.amazon.com/AYRIAL-Feng-Shui-Tips/dp/B073R7QDNT/ref=sr_1_1?qid=1576373430&refinements=p_n_feature_four_browse-bin%3A15197002011&rnid=14284837011&s=alexa-skills&sr=1-1
Lifestyle : Astrology	AstroBoss	3.4	4	https://www.amazon.com/Daphne-Mallory-AstroBoss/dp/B077LC28H2/ref=sr_1_2?qid=1576373430&refinements=p_n_feature_four_browse-bin%3A15197002011&rnid=14284837011&s=alexa-skills&sr=1-2
Lifestyle : Astrology	SAM (Sri Ahobila Matam) Calendar	4.3	15	https://www.amazon.com/SAM-Sri-Ahobila-Matam-Calendar/dp/B07LDS3R8Q/ref=sr_1_3?qid=1576373430&refinements=p_n_feature_four_browse-bin%3A15197002011&rnid=14284837011&s=alexa-skills&sr=1-3
Lifestyle : Astrology	Fortune Bot	5.0	2	https://www.amazon.com/Thinkcode-LLC-Fortune-Bot/dp/B07KM42RKF/ref=sr_1_4?qid=1576373430&refinements=p_n_feature_four_browse-bin%3A15197002011&rnid=14284837011&s=alexa-skills&sr=1-4
Lifestyle : Astrology	Weekly Horoscope	4.5	3	https://www.amazon.com/Mohit-arora-Weekly-Horoscope/dp/B07J2MCLJ3/ref=sr_1_5?qid=1576373430&refinements=p_n_feature_four_browse-bin%3A15197002011&rnid=14284837011&s=alexa-skills&sr=1-5
Lifestyle : Astrology	My Horoscope	3.9	154	https://www.amazon.com/Kanav-Gupta-My-Horoscope/dp/B07C1M63BS/ref=sr_1_6?qid=1576373430&refinements=p_n_feature_four_browse-bin%3A15197002011&rnid=14284837011&s=alexa-skills&sr=1-6
Lifestyle : Astrology	Almanac	5.0	2	https://www.amazon.com/TankBell-Technologies-LLC-Almanac/dp/B01L8QOK8C/ref=sr_1_7?qid=1576373430&refinements=p_n_feature_four_browse-bin%3A15197002011&rnid=14284837011&s=alexa-skills&sr=1-7
Lifestyle : Astrology	Horoscope 3.1	4.0	14	https://www.amazon.com/Mohit-arora-Horoscope-3-1/dp/B07DBS811V/ref=sr_1_8?qid=1576373430&refinements=p_n_feature_four_browse-bin%3A15197002011&rnid=14284837011&s=alexa-skills&sr=1-8
Lifestyle : Astrology	Moon Mansions: Moon Phase Now	4.5	2	https://www.amazon.com/Moon-Mansions-Phase-Now/dp/B07F33THS4/ref=sr_1_9?qid=1576373430&refinements=p_n_feature_four_browse-bin%3A15197002011&rnid=14284837011&s=alexa-skills&sr=1-9
Lifestyle : Astrology	Star Horoscope - Daily Reading Flash Briefing	3.5	18	https://www.amazon.com/Star-Horoscope-Daily-Reading-Briefing/dp/B07GB6WK8S/ref=sr_1_10?qid=1576373430&refinements=p_n_feature_four_browse-bin%3A15197002011&rnid=14284837011&s=alexa-skills&sr=1-10
Lifestyle : Astrology	Hafez Reading	5.0	1	https://www.amazon.com/Ali-Kianzadeh-Hafez-Reading/dp/B07ZH9RGK2/ref=sr_1_11?qid=1576373430&refinements=p_n_feature_four_browse-bin%3A15197002011&rnid=14284837011&s=alexa-skills&sr=1-11
Lifestyle : Astrology	Daily Scorpio Horoscope	4.6	3	https://www.amazon.com/DNAsoft-mobi-Daily-Scorpio-Horoscope/dp/B07K27KVS2/ref=sr_1_12?qid=1576373430&refinements=p_n_feature_four_browse-bin%3A15197002011&rnid=14284837011&s=alexa-skills&sr=1-12
Lifestyle : Astrology	Birthstone	3.1	3	https://www.amazon.com/Kwanovations-LLC-Birthstone/dp/B071L6KLHZ/ref=sr_1_13?qid=1576373430&refinements=p_n_feature_four_browse-bin%3A15197002011&rnid=14284837011&s=alexa-skills&sr=1-13
Lifestyle : Astrology	Tarot Love Reading	4.1	54	https://www.amazon.com/Square-Monkey-Tarot-Love-Reading/dp/B06XVHTCY2/ref=sr_1_14?qid=1576373430&refinements=p_n_feature_four_browse-bin%3A15197002011&rnid=14284837011&s=alexa-skills&sr=1-14
Lifestyle : Astrology	Virgo Horoscope of the Day	3.6	7	https://www.amazon.com/Virgo-Horoscope-of-the-Day/dp/B079VRXQY1/ref=sr_1_15?qid=1576373430&refinements=p_n_feature_four_browse-bin%3A15197002011&rnid=14284837011&s=alexa-skills&sr=1-15
Lifestyle : Astrology	Daily Horoscope	4.2	251	https://www.amazon.com/marks_matters-Daily-Horoscope/dp/B073ZQV61R/ref=sr_1_16?qid=1576373430&refinements=p_n_feature_four_browse-bin%3A15197002011&rnid=14284837011&s=alexa-skills&sr=1-16
Lifestyle : Astrology	Natal Charts	3.7	6	https://www.amazon.com/Aygul-Natal-Charts/dp/B07DK6SZYG/ref=sr_1_17?qid=1576373436&refinements=p_n_feature_four_browse-bin%3A15197002011&rnid=14284837011&s=alexa-skills&sr=1-17
Lifestyle : Astrology	AstrologyBear	3.8	195	https://www.amazon.com/DougCo-AstrologyBear/dp/B0716DPLCC/ref=sr_1_18?qid=1576373436&refinements=p_n_feature_four_browse-bin%3A15197002011&rnid=14284837011&s=alexa-skills&sr=1-18
Lifestyle : Astrology	Horoscope Time	4.0	1	https://www.amazon.com/EceOktay-Horoscope-Time/dp/B07MGVCVCQ/ref=sr_1_19?qid=1576373436&refinements=p_n_feature_four_browse-bin%3A15197002011&rnid=14284837011&s=alexa-skills&sr=1-19
Lifestyle : Astrology	Aries Horoscope of the Day	2.9	3	https://www.amazon.com/Aries-Horoscope-of-the-Day/dp/B079VTXFMN/ref=sr_1_20?qid=1576373436&refinements=p_n_feature_four_browse-bin%3A15197002011&rnid=14284837011&s=alexa-skills&sr=1-20
Lifestyle : Astrology	The Daily Energy Reading	3.2	9	https://www.amazon.com/Heaven-To-Earth-Heather-Reading/dp/B07BWP528J/ref=sr_1_21?qid=1576373436&refinements=p_n_feature_four_browse-bin%3A15197002011&rnid=14284837011&s=alexa-skills&sr=1-21
Lifestyle : Astrology	Horror Scope	3.8	10	https://www.amazon.com/Dexter-Horror-Scope/dp/B07BVZF36W/ref=sr_1_22?qid=1576373436&refinements=p_n_feature_four_browse-bin%3A15197002011&rnid=14284837011&s=alexa-skills&sr=1-22
Lifestyle : Astrology	Star Horoscope	3.8	22	https://www.amazon.com/StarButter-Star-Horoscope/dp/B07F81XLDM/ref=sr_1_23?qid=1576373436&refinements=p_n_feature_four_browse-bin%3A15197002011&rnid=14284837011&s=alexa-skills&sr=1-23
Lifestyle : Astrology	Chinese Zodiac	3.5	5	https://www.amazon.com/jcn-Chinese-Zodiac/dp/B01KDG8QVK/ref=sr_1_24?qid=1576373436&refinements=p_n_feature_four_browse-bin%3A15197002011&rnid=14284837011&s=alexa-skills&sr=1-24
Lifestyle : Astrology	Tarot when will I find love	3.5	3	https://www.amazon.com/Tarot-when-will-find-love/dp/B07211KL89/ref=sr_1_25?qid=1576373436&refinements=p_n_feature_four_browse-bin%3A15197002011&rnid=14284837011&s=alexa-skills&sr=1-25
Lifestyle : Astrology	Lucky Spell	None	None	https://www.amazon.com/richspoiledkid-Lucky-Spell/dp/B082NV76ZY/ref=sr_1_26?qid=1576373436&refinements=p_n_feature_four_browse-bin%3A15197002011&rnid=14284837011&s=alexa-skills&sr=1-26
Lifestyle : Astrology	EYAN SEER	None	None	https://www.amazon.com/Zarah-EYAN-SEER/dp/B082NLP9J3/ref=sr_1_27?qid=1576373436&refinements=p_n_feature_four_browse-bin%3A15197002011&rnid=14284837011&s=alexa-skills&sr=1-27
Lifestyle : Astrology	Space News	None	None	https://www.amazon.com/crxcrx-Space-News/dp/B0824PQG88/ref=sr_1_28?qid=1576373436&refinements=p_n_feature_four_browse-bin%3A15197002011&rnid=14284837011&s=alexa-skills&sr=1-28
Lifestyle : Astrology	Tarot Game	4.0	1	https://www.amazon.com/CloudSQR-Tarot-Game/dp/B0821Q4KLW/ref=sr_1_29?qid=1576373436&refinements=p_n_feature_four_browse-bin%3A15197002011&rnid=14284837011&s=alexa-skills&sr=1-29
Lifestyle : Astrology	Fortune Teller	None	None	https://www.amazon.com/Lisa-G-Watmough-Fortune-Teller/dp/B081W69W3B/ref=sr_1_30?qid=1576373436&refinements=p_n_feature_four_browse-bin%3A15197002011&rnid=14284837011&s=alexa-skills&sr=1-30
Lifestyle : Astrology	jace horoscope	None	None	https://www.amazon.com/jacenewsnetwork-jace-horoscope/dp/B081RWVFPH/ref=sr_1_31?qid=1576373436&refinements=p_n_feature_four_browse-bin%3A15197002011&rnid=14284837011&s=alexa-skills&sr=1-31
Lifestyle : Astrology	Space Facts	None	None	https://www.amazon.com/shefali-chaurasia-Space-Facts/dp/B081LYT3YP/ref=sr_1_32?qid=1576373436&refinements=p_n_feature_four_browse-bin%3A15197002011&rnid=14284837011&s=alexa-skills&sr=1-32
Lifestyle : Astrology	Space Facts Sample	None	None	https://www.amazon.com/TaigaIshii-Space-Facts-Sample/dp/B081LY629K/ref=sr_1_33?qid=1576373443&refinements=p_n_feature_four_browse-bin%3A15197002011&rnid=14284837011&s=alexa-skills&sr=1-33
Lifestyle : Astrology	space facts	None	None	https://www.amazon.com/dikisukhi-space-facts/dp/B081LVSP3M/ref=sr_1_34?qid=1576373443&refinements=p_n_feature_four_browse-bin%3A15197002011&rnid=14284837011&s=alexa-skills&sr=1-34
Lifestyle : Astrology	New podcast	None	None	https://www.amazon.com/Krishy-New-podcast/dp/B07ZSC1W67/ref=sr_1_35?qid=1576373443&refinements=p_n_feature_four_browse-bin%3A15197002011&rnid=14284837011&s=alexa-skills&sr=1-35
Lifestyle : Astrology	Pizza Parking	None	None	https://www.amazon.com/BrandFunnels-LLC-Pizza-Parking/dp/B07ZPSK4V8/ref=sr_1_36?qid=1576373443&refinements=p_n_feature_four_browse-bin%3A15197002011&rnid=14284837011&s=alexa-skills&sr=1-36
Lifestyle : Astrology	Angel Wisdom	5.0	1	https://www.amazon.com/Tommy-Mordecai-for-Romany-dreams/dp/B07ZMSDGKQ/ref=sr_1_37?qid=1576373443&refinements=p_n_feature_four_browse-bin%3A15197002011&rnid=14284837011&s=alexa-skills&sr=1-37
Lifestyle : Astrology	friday the thirteenth checker	None	None	https://www.amazon.com/DanW-Apps-friday-thirteenth-checker/dp/B07ZCBND7N/ref=sr_1_38?qid=1576373443&refinements=p_n_feature_four_browse-bin%3A15197002011&rnid=14284837011&s=alexa-skills&sr=1-38
Lifestyle : Astrology	Schneider University News	None	None	https://www.amazon.com/Truth-Tree-Consulting-Schneider-University/dp/B07ZBJCDDQ/ref=sr_1_39?qid=1576373443&refinements=p_n_feature_four_browse-bin%3A15197002011&rnid=14284837011&s=alexa-skills&sr=1-39
Lifestyle : Astrology	check	None	None	https://www.amazon.com/Jargon-check/dp/B07Y83JSS8/ref=sr_1_40?qid=1576373443&refinements=p_n_feature_four_browse-bin%3A15197002011&rnid=14284837011&s=alexa-skills&sr=1-40
Lifestyle : Astrology	Bigil Movie 2019	None	None	https://www.amazon.com/Jargon-Bigil-Movie-2019/dp/B07XYRRYN7/ref=sr_1_41?qid=1576373443&refinements=p_n_feature_four_browse-bin%3A15197002011&rnid=14284837011&s=alexa-skills&sr=1-41
Lifestyle : Astrology	Daily Tarot	None	None	https://www.amazon.com/One-Chance-Daily-Tarot/dp/B07XP6263L/ref=sr_1_42?qid=1576373443&refinements=p_n_feature_four_browse-bin%3A15197002011&rnid=14284837011&s=alexa-skills&sr=1-42
Lifestyle : Astrology	Birthstone guide	1.0	1	https://www.amazon.com/Vialgames-Birthstone-guide/dp/B07XCL4TJT/ref=sr_1_43?qid=1576373443&refinements=p_n_feature_four_browse-bin%3A15197002011&rnid=14284837011&s=alexa-skills&sr=1-43
Lifestyle : Astrology	Cosmic Predictions Now	None	None	https://www.amazon.com/The-Bill-Wizard-Cosmic-Predictions/dp/B07RSMWXMN/ref=sr_1_44?qid=1576373443&refinements=p_n_feature_four_browse-bin%3A15197002011&rnid=14284837011&s=alexa-skills&sr=1-44
Lifestyle : Astrology	AstroSage Horoscope	None	None	https://www.amazon.com/Ojas-Softech-Pvt-Ltd-AstroSage/dp/B07R6QRDKW/ref=sr_1_45?qid=1576373443&refinements=p_n_feature_four_browse-bin%3A15197002011&rnid=14284837011&s=alexa-skills&sr=1-45
Lifestyle : Astrology	Yes No Maybe	None	None	https://www.amazon.com/Star-Zone-Yes-No-Maybe/dp/B07R45K9FJ/ref=sr_1_46?qid=1576373443&refinements=p_n_feature_four_browse-bin%3A15197002011&rnid=14284837011&s=alexa-skills&sr=1-46
Lifestyle : Astrology	Daily HoroScope - Hindi	None	None	https://www.amazon.com/Macde-Daily-HoroScope-Hindi/dp/B07QH1L7SX/ref=sr_1_47?qid=1576373443&refinements=p_n_feature_four_browse-bin%3A15197002011&rnid=14284837011&s=alexa-skills&sr=1-47
Lifestyle : Astrology	Tamil Horoscope	None	None	https://www.amazon.com/Macde-Tamil-Horoscope/dp/B07QGYZZCZ/ref=sr_1_48?qid=1576373443&refinements=p_n_feature_four_browse-bin%3A15197002011&rnid=14284837011&s=alexa-skills&sr=1-48
Lifestyle : Astrology	Oriental Zodiac	None	None	https://www.amazon.com/Paul-Chung-Oriental-Zodiac/dp/B07Q4BH96P/ref=sr_1_49?qid=1576373449&refinements=p_n_feature_four_browse-bin%3A15197002011&rnid=14284837011&s=alexa-skills&sr=1-49
Lifestyle : Astrology	Fortune Fifty Two	5.0	1	https://www.amazon.com/oops_brady-Fortune-Fifty-Two/dp/B07PGGPF4V/ref=sr_1_50?qid=1576373449&refinements=p_n_feature_four_browse-bin%3A15197002011&rnid=14284837011&s=alexa-skills&sr=1-50
Lifestyle : Astrology	Tamil Hit movies 2019	None	None	https://www.amazon.com/Thirumurugan-Tamil-Hit-movies-2019/dp/B07NV94RGG/ref=sr_1_51?qid=1576373449&refinements=p_n_feature_four_browse-bin%3A15197002011&rnid=14284837011&s=alexa-skills&sr=1-51
Lifestyle : Astrology	Learn Java Program language	None	None	https://www.amazon.com/Thirumurugan-Learn-Java-Program-language/dp/B07NRRDK2J/ref=sr_1_52?qid=1576373449&refinements=p_n_feature_four_browse-bin%3A15197002011&rnid=14284837011&s=alexa-skills&sr=1-52
Lifestyle : Astrology	Jesse Inisan Astrology	None	None	https://www.amazon.com/Jesse-Inisan-Astrology/dp/B07NRPDQNY/ref=sr_1_53?qid=1576373449&refinements=p_n_feature_four_browse-bin%3A15197002011&rnid=14284837011&s=alexa-skills&sr=1-53
Lifestyle : Astrology	Learn PHP	None	None	https://www.amazon.com/Thirumurugan-Learn-PHP/dp/B07NPMG9WC/ref=sr_1_54?qid=1576373449&refinements=p_n_feature_four_browse-bin%3A15197002011&rnid=14284837011&s=alexa-skills&sr=1-54
Lifestyle : Astrology	Indian Election 2019	None	None	https://www.amazon.com/Thirumurugan-Indian-Election-2019/dp/B07NPGDX2W/ref=sr_1_55?qid=1576373449&refinements=p_n_feature_four_browse-bin%3A15197002011&rnid=14284837011&s=alexa-skills&sr=1-55
Lifestyle : Astrology	Madras History	None	None	https://www.amazon.com/Thirumurugan-Madras-History/dp/B07NL86XVG/ref=sr_1_56?qid=1576373449&refinements=p_n_feature_four_browse-bin%3A15197002011&rnid=14284837011&s=alexa-skills&sr=1-56
Lifestyle : Astrology	Lucky Horoscope	None	None	https://www.amazon.com/Leslie-Correa-Lucky-Horoscope/dp/B07N73QVPL/ref=sr_1_57?qid=1576373449&refinements=p_n_feature_four_browse-bin%3A15197002011&rnid=14284837011&s=alexa-skills&sr=1-57
Lifestyle : Astrology	mars facts	None	None	https://www.amazon.com/corusm-mars-facts/dp/B07N69374C/ref=sr_1_58?qid=1576373449&refinements=p_n_feature_four_browse-bin%3A15197002011&rnid=14284837011&s=alexa-skills&sr=1-58
Lifestyle : Astrology	SunArc Horoscope	None	None	https://www.amazon.com/Mohammad-Abbas-SunArc-Horoscope/dp/B07MVWKF15/ref=sr_1_59?qid=1576373449&refinements=p_n_feature_four_browse-bin%3A15197002011&rnid=14284837011&s=alexa-skills&sr=1-59
Lifestyle : Astrology	TEST BRIEFING	None	None	https://www.amazon.com/Updates-TEST-BRIEFING/dp/B07MQQ5YQZ/ref=sr_1_60?qid=1576373449&refinements=p_n_feature_four_browse-bin%3A15197002011&rnid=14284837011&s=alexa-skills&sr=1-60
Lifestyle : Astrology	Rosey Bell - Pasadena Real Estate	None	None	https://www.amazon.com/Rosey-Bell-Pasadena-Real-Estate/dp/B07MQJ4Z5W/ref=sr_1_61?qid=1576373449&refinements=p_n_feature_four_browse-bin%3A15197002011&rnid=14284837011&s=alexa-skills&sr=1-61
Lifestyle : Astrology	horoscope application	5.0	1	https://www.amazon.com/Mohammad-Abbas-horoscope-application/dp/B07MG9JK1K/ref=sr_1_62?qid=1576373449&refinements=p_n_feature_four_browse-bin%3A15197002011&rnid=14284837011&s=alexa-skills&sr=1-62
Lifestyle : Astrology	Moon Phases	None	None	https://www.amazon.com/hakancan-Moon-Phases/dp/B07M8ZRG38/ref=sr_1_63?qid=1576373449&refinements=p_n_feature_four_browse-bin%3A15197002011&rnid=14284837011&s=alexa-skills&sr=1-63
Lifestyle : Astrology	Twelve Chinese Animals	None	None	https://www.amazon.com/funbird-Twelve-Chinese-Animals/dp/B07LGDQ4JP/ref=sr_1_64?qid=1576373449&refinements=p_n_feature_four_browse-bin%3A15197002011&rnid=14284837011&s=alexa-skills&sr=1-64
Lifestyle : Astrology	Aster caster	None	None	https://www.amazon.com/Dani7B-Aster-caster/dp/B07L86Y4P6/ref=sr_1_65?qid=1576373456&refinements=p_n_feature_four_browse-bin%3A15197002011&rnid=14284837011&s=alexa-skills&sr=1-65
Lifestyle : Astrology	Numerology by Voice of Intuition	None	None	https://www.amazon.com/Numerology-by-Voice-of-Intuition/dp/B07L3MC1XT/ref=sr_1_66?qid=1576373456&refinements=p_n_feature_four_browse-bin%3A15197002011&rnid=14284837011&s=alexa-skills&sr=1-66
Lifestyle : Astrology	Premium number	None	None	https://www.amazon.com/Kushal-Hada-Premium-number/dp/B07KXW4XF3/ref=sr_1_67?qid=1576373456&refinements=p_n_feature_four_browse-bin%3A15197002011&rnid=14284837011&s=alexa-skills&sr=1-67
Lifestyle : Astrology	The Daily Virgo	None	None	https://www.amazon.com/Vibrational-Tonic-The-Daily-Virgo/dp/B07KWZYXWZ/ref=sr_1_68?qid=1576373456&refinements=p_n_feature_four_browse-bin%3A15197002011&rnid=14284837011&s=alexa-skills&sr=1-68
Lifestyle : Astrology	Daily Capricorn Horoscope	3.5	2	https://www.amazon.com/DNAsoft-mobi-Daily-Capricorn-Horoscope/dp/B07KF7GZFN/ref=sr_1_69?qid=1576373456&refinements=p_n_feature_four_browse-bin%3A15197002011&rnid=14284837011&s=alexa-skills&sr=1-69
Lifestyle : Astrology	Chinese Sign	None	None	https://www.amazon.com/Michael-Christopher-Chinese-Sign/dp/B07KF67MBV/ref=sr_1_70?qid=1576373456&refinements=p_n_feature_four_browse-bin%3A15197002011&rnid=14284837011&s=alexa-skills&sr=1-70
Lifestyle : Astrology	Lucky U.S. Wedding Days	None	None	https://www.amazon.com/Carnival-of-Lights-Lucky-Wedding/dp/B07K5D29FH/ref=sr_1_71?qid=1576373456&refinements=p_n_feature_four_browse-bin%3A15197002011&rnid=14284837011&s=alexa-skills&sr=1-71
Lifestyle : Astrology	Boring Fortunes	None	None	https://www.amazon.com/james-lewis-Boring-Fortunes/dp/B07K44BMFX/ref=sr_1_72?qid=1576373456&refinements=p_n_feature_four_browse-bin%3A15197002011&rnid=14284837011&s=alexa-skills&sr=1-72
Lifestyle : Astrology	Magic Six Ball	None	None	https://www.amazon.com/Paul-Duquesnoy-Magic-Six-Ball/dp/B07K1ZLFH9/ref=sr_1_73?qid=1576373456&refinements=p_n_feature_four_browse-bin%3A15197002011&rnid=14284837011&s=alexa-skills&sr=1-73
Lifestyle : Astrology	Universal Randomizer	None	None	https://www.amazon.com/zecho-design-Universal-Randomizer/dp/B07K1ZHN38/ref=sr_1_74?qid=1576373456&refinements=p_n_feature_four_browse-bin%3A15197002011&rnid=14284837011&s=alexa-skills&sr=1-74
Lifestyle : Astrology	Daily Taurus Horoscope	4.7	4	https://www.amazon.com/DNAsoft-mobi-Daily-Taurus-Horoscope/dp/B07K1DRWXN/ref=sr_1_75?qid=1576373456&refinements=p_n_feature_four_browse-bin%3A15197002011&rnid=14284837011&s=alexa-skills&sr=1-75
Lifestyle : Astrology	Daily Cancer Horoscope	None	None	https://www.amazon.com/DNAsoft-mobi-Daily-Cancer-Horoscope/dp/B07JZDDJS3/ref=sr_1_76?qid=1576373456&refinements=p_n_feature_four_browse-bin%3A15197002011&rnid=14284837011&s=alexa-skills&sr=1-76
Lifestyle : Astrology	Daily Gemini Horoscope	2.8	3	https://www.amazon.com/DNAsoft-mobi-Daily-Gemini-Horoscope/dp/B07JZ7MFTJ/ref=sr_1_77?qid=1576373456&refinements=p_n_feature_four_browse-bin%3A15197002011&rnid=14284837011&s=alexa-skills&sr=1-77
Lifestyle : Astrology	Daily Aquarius Horoscope	4.0	1	https://www.amazon.com/DNAsoft-mobi-Daily-Aquarius-Horoscope/dp/B07JZ2BL6G/ref=sr_1_78?qid=1576373456&refinements=p_n_feature_four_browse-bin%3A15197002011&rnid=14284837011&s=alexa-skills&sr=1-78
Lifestyle : Astrology	Daily Virgo Horoscope	4.0	1	https://www.amazon.com/DNAsoft-mobi-Daily-Virgo-Horoscope/dp/B07JYZC2BL/ref=sr_1_79?qid=1576373456&refinements=p_n_feature_four_browse-bin%3A15197002011&rnid=14284837011&s=alexa-skills&sr=1-79
Lifestyle : Astrology	Daily Leo Horoscope	None	None	https://www.amazon.com/DNAsoft-mobi-Daily-Leo-Horoscope/dp/B07JYZ9RSW/ref=sr_1_80?qid=1576373456&refinements=p_n_feature_four_browse-bin%3A15197002011&rnid=14284837011&s=alexa-skills&sr=1-80
Lifestyle : Astrology	Daily Libra Horoscope	None	None	https://www.amazon.com/DNAsoft-mobi-Daily-Libra-Horoscope/dp/B07JYFB6QJ/ref=sr_1_81?qid=1576373463&refinements=p_n_feature_four_browse-bin%3A15197002011&rnid=14284837011&s=alexa-skills&sr=1-81
Lifestyle : Astrology	Daily Aries Horoscope	None	None	https://www.amazon.com/DNAsoft-mobi-Daily-Aries-Horoscope/dp/B07JYDLSR1/ref=sr_1_82?qid=1576373463&refinements=p_n_feature_four_browse-bin%3A15197002011&rnid=14284837011&s=alexa-skills&sr=1-82
Lifestyle : Astrology	Sun Facts	None	None	https://www.amazon.com/Naveen-Rohilla-Sun-Facts/dp/B07JXY3B7K/ref=sr_1_83?qid=1576373463&refinements=p_n_feature_four_browse-bin%3A15197002011&rnid=14284837011&s=alexa-skills&sr=1-83
Lifestyle : Astrology	Tithi today	None	None	https://www.amazon.com/sm7-Tithi-today/dp/B07JQJS7QH/ref=sr_1_84?qid=1576373463&refinements=p_n_feature_four_browse-bin%3A15197002011&rnid=14284837011&s=alexa-skills&sr=1-84
Lifestyle : Astrology	Zodiac Explorer	1.0	1	https://www.amazon.com/paperpanks-Zodiac-Explorer/dp/B07JQC9N5X/ref=sr_1_85?qid=1576373463&refinements=p_n_feature_four_browse-bin%3A15197002011&rnid=14284837011&s=alexa-skills&sr=1-85
Lifestyle : Astrology	Mercury Facts	None	None	https://www.amazon.com/Naveen-Rohilla-Mercury-Facts/dp/B07JQ94D4W/ref=sr_1_86?qid=1576373463&refinements=p_n_feature_four_browse-bin%3A15197002011&rnid=14284837011&s=alexa-skills&sr=1-86
Lifestyle : Astrology	Mars Fact	None	None	https://www.amazon.com/Naveen-Rohilla-Mars-Fact/dp/B07JQ8XG9X/ref=sr_1_87?qid=1576373463&refinements=p_n_feature_four_browse-bin%3A15197002011&rnid=14284837011&s=alexa-skills&sr=1-87
Lifestyle : Astrology	Loopz Order Details	None	None	https://www.amazon.com/Rajshekhar-Horatti-Loopz-Order-Details/dp/B07JPGWHHY/ref=sr_1_88?qid=1576373463&refinements=p_n_feature_four_browse-bin%3A15197002011&rnid=14284837011&s=alexa-skills&sr=1-88
Lifestyle : Astrology	Ask Ganesha	None	None	https://www.amazon.com/Mohan-Udyavar-Ask-Ganesha/dp/B07JNFYHJB/ref=sr_1_89?qid=1576373463&refinements=p_n_feature_four_browse-bin%3A15197002011&rnid=14284837011&s=alexa-skills&sr=1-89
Lifestyle : Astrology	Tithi Talika	None	None	https://www.amazon.com/Rajesh-Tongia-Tithi-Talika/dp/B07JMMPSBB/ref=sr_1_90?qid=1576373463&refinements=p_n_feature_four_browse-bin%3A15197002011&rnid=14284837011&s=alexa-skills&sr=1-90
Lifestyle : Astrology	Daily Sagittarius Horoscope	4.0	1	https://www.amazon.com/DNAsoft-mobi-Daily-Sagittarius-Horoscope/dp/B07JLLDBCT/ref=sr_1_91?qid=1576373463&refinements=p_n_feature_four_browse-bin%3A15197002011&rnid=14284837011&s=alexa-skills&sr=1-91
Lifestyle : Astrology	Lucky Number	None	None	https://www.amazon.com/kegan-underwood-Lucky-Number/dp/B07JG5P73K/ref=sr_1_92?qid=1576373463&refinements=p_n_feature_four_browse-bin%3A15197002011&rnid=14284837011&s=alexa-skills&sr=1-92
Lifestyle : Astrology	DailyHoroscope	None	None	https://www.amazon.com/Navneet-DailyHoroscope/dp/B07JDKVF8R/ref=sr_1_93?qid=1576373463&refinements=p_n_feature_four_browse-bin%3A15197002011&rnid=14284837011&s=alexa-skills&sr=1-93
Lifestyle : Astrology	Your lucky number	None	None	https://www.amazon.com/Kushal-Hada-Your-lucky-number/dp/B07J4TMVKJ/ref=sr_1_94?qid=1576373463&refinements=p_n_feature_four_browse-bin%3A15197002011&rnid=14284837011&s=alexa-skills&sr=1-94
Lifestyle : Astrology	today horoscope	None	None	https://www.amazon.com/annish-kumar-today-horoscope/dp/B07J2BXRD3/ref=sr_1_95?qid=1576373463&refinements=p_n_feature_four_browse-bin%3A15197002011&rnid=14284837011&s=alexa-skills&sr=1-95
Lifestyle : Astrology	The Not Old - Better Show	None	None	https://www.amazon.com/The-Not-Old-Better-Show/dp/B07HZ6QNMR/ref=sr_1_96?qid=1576373463&refinements=p_n_feature_four_browse-bin%3A15197002011&rnid=14284837011&s=alexa-skills&sr=1-96
Lifestyle : Astrology	A Random Cave	None	None	https://www.amazon.com/AJ-ICT-A-Random-Cave/dp/B07HRGNV7X/ref=sr_1_97?qid=1576373469&refinements=p_n_feature_four_browse-bin%3A15197002011&rnid=14284837011&s=alexa-skills&sr=1-97
Lifestyle : Astrology	KMIT Horoscope(US)	None	None	https://www.amazon.com/Teleparadigm-Networks-Limited-KMIT-Horoscope/dp/B07HMLCD1Z/ref=sr_1_98?qid=1576373469&refinements=p_n_feature_four_browse-bin%3A15197002011&rnid=14284837011&s=alexa-skills&sr=1-98
Lifestyle : Astrology	Today's horoscope	None	None	https://www.amazon.com/Quadrigo-Todays-horoscope/dp/B07GSYB3CL/ref=sr_1_99?qid=1576373469&refinements=p_n_feature_four_browse-bin%3A15197002011&rnid=14284837011&s=alexa-skills&sr=1-99
Lifestyle : Astrology	The Horoscope	2.0	1	https://www.amazon.com/kalpit-pokra-The-Horoscope/dp/B07G74MRMX/ref=sr_1_100?qid=1576373469&refinements=p_n_feature_four_browse-bin%3A15197002011&rnid=14284837011&s=alexa-skills&sr=1-100
Lifestyle : Astrology	Audio Test	None	None	https://www.amazon.com/Moses-McCall-Audio-Test/dp/B07FMZF9D5/ref=sr_1_101?qid=1576373469&refinements=p_n_feature_four_browse-bin%3A15197002011&rnid=14284837011&s=alexa-skills&sr=1-101
Lifestyle : Astrology	Today's Horoscope	3.4	51	https://www.amazon.com/Lets-Nurture-Infotech-Pvt-Ltd/dp/B07DCSVK9H/ref=sr_1_102?qid=1576373469&refinements=p_n_feature_four_browse-bin%3A15197002011&rnid=14284837011&s=alexa-skills&sr=1-102
Lifestyle : Astrology	Horoscope daily	4.2	19	https://www.amazon.com/Yudhik-Horoscope-daily/dp/B07CVQDN9L/ref=sr_1_103?qid=1576373469&refinements=p_n_feature_four_browse-bin%3A15197002011&rnid=14284837011&s=alexa-skills&sr=1-103
Lifestyle : Astrology	Free daily predictions for your star sign	4.5	2	https://www.amazon.com/Free-daily-predictions-your-star/dp/B07CRCL45P/ref=sr_1_104?qid=1576373469&refinements=p_n_feature_four_browse-bin%3A15197002011&rnid=14284837011&s=alexa-skills&sr=1-104
Lifestyle : Astrology	Mercury Retrograde	5.0	2	https://www.amazon.com/caiati-Mercury-Retrograde/dp/B07BPS6FYB/ref=sr_1_105?qid=1576373469&refinements=p_n_feature_four_browse-bin%3A15197002011&rnid=14284837011&s=alexa-skills&sr=1-105
Lifestyle : Astrology	My Shine "tells about your day"	None	None	https://www.amazon.com/Shine-tells-about-your-day/dp/B0796LFWJC/ref=sr_1_106?qid=1576373469&refinements=p_n_feature_four_browse-bin%3A15197002011&rnid=14284837011&s=alexa-skills&sr=1-106
Lifestyle : Astrology	Ladies Cards	4.5	2	https://www.amazon.com/LucentDreams-Ladies-Cards/dp/B078M9CJG8/ref=sr_1_107?qid=1576373469&refinements=p_n_feature_four_browse-bin%3A15197002011&rnid=14284837011&s=alexa-skills&sr=1-107
Lifestyle : Astrology	Numerology Calculator	3.0	2	https://www.amazon.com/Rachit-Technology-Pvt-Ltd-Numerology/dp/B0785BY9RZ/ref=sr_1_108?qid=1576373469&refinements=p_n_feature_four_browse-bin%3A15197002011&rnid=14284837011&s=alexa-skills&sr=1-108
Lifestyle : Astrology	CaptivePower	None	None	https://www.amazon.com/WebRecycles-Inc-CaptivePower/dp/B0776B7BMQ/ref=sr_1_109?qid=1576373469&refinements=p_n_feature_four_browse-bin%3A15197002011&rnid=14284837011&s=alexa-skills&sr=1-109
Lifestyle : Astrology	GaneshaSpeaks	None	None	https://www.amazon.com/GaneshaSpeaks-com-GaneshaSpeaks/dp/B074XYY6CQ/ref=sr_1_110?qid=1576373469&refinements=p_n_feature_four_browse-bin%3A15197002011&rnid=14284837011&s=alexa-skills&sr=1-110
Lifestyle : Astrology	RandGenApp	None	None	https://www.amazon.com/haodebi-RandGenApp/dp/B074N2B4LV/ref=sr_1_111?qid=1576373469&refinements=p_n_feature_four_browse-bin%3A15197002011&rnid=14284837011&s=alexa-skills&sr=1-111
Lifestyle : Astrology	My Fortune	5.0	1	https://www.amazon.com/CodeWithVijay-My-Fortune/dp/B074LXYL6Y/ref=sr_1_112?qid=1576373469&refinements=p_n_feature_four_browse-bin%3A15197002011&rnid=14284837011&s=alexa-skills&sr=1-112
Lifestyle : Astrology	Susan Miller's Astrology Zone	3.8	140	https://www.amazon.com/Phunware-Susan-Millers-Astrology-Zone/dp/B073BFK616/ref=sr_1_113?qid=1576373476&refinements=p_n_feature_four_browse-bin%3A15197002011&rnid=14284837011&s=alexa-skills&sr=1-113
Lifestyle : Astrology	Chinese zodiac helper	None	None	https://www.amazon.com/arthurc-Chinese-zodiac-helper/dp/B072JDLSLK/ref=sr_1_114?qid=1576373476&refinements=p_n_feature_four_browse-bin%3A15197002011&rnid=14284837011&s=alexa-skills&sr=1-114
Lifestyle : Astrology	AstrologyFacts	4.1	2	https://www.amazon.com/Just-for-fun-AstrologyFacts/dp/B071RL3KJK/ref=sr_1_115?qid=1576373476&refinements=p_n_feature_four_browse-bin%3A15197002011&rnid=14284837011&s=alexa-skills&sr=1-115
Lifestyle : Astrology	Tarot How does he feel about me	3.3	5	https://www.amazon.com/Tarot-How-does-feel-about/dp/B071P11Z69/ref=sr_1_116?qid=1576373476&refinements=p_n_feature_four_browse-bin%3A15197002011&rnid=14284837011&s=alexa-skills&sr=1-116
Lifestyle : Astrology	Tell-Fortune	None	None	https://www.amazon.com/Mukul-Tell-Fortune/dp/B071G29WMC/ref=sr_1_117?qid=1576373476&refinements=p_n_feature_four_browse-bin%3A15197002011&rnid=14284837011&s=alexa-skills&sr=1-117
Lifestyle : Astrology	Smart Cookie	None	None	https://www.amazon.com/SmartCloud-Infoservices-Smart-Cookie/dp/B06XNRPBYX/ref=sr_1_118?qid=1576373476&refinements=p_n_feature_four_browse-bin%3A15197002011&rnid=14284837011&s=alexa-skills&sr=1-118
Lifestyle : Astrology	Zodiac Dates	None	None	https://www.amazon.com/kb-Zodiac-Dates/dp/B01LM25PCM/ref=sr_1_119?qid=1576373476&refinements=p_n_feature_four_browse-bin%3A15197002011&rnid=14284837011&s=alexa-skills&sr=1-119
Lifestyle : Astrology	Five O Astrology	None	None	https://www.amazon.com/Dev-Bradshaw-Five-O-Astrology/dp/B01LKOZXM4/ref=sr_1_120?qid=1576373476&refinements=p_n_feature_four_browse-bin%3A15197002011&rnid=14284837011&s=alexa-skills&sr=1-120
Lifestyle : Astrology	The Diabetic Foot	2.9	2	https://www.amazon.com/The-Sonoran-Foot-Ankle-Instituute/dp/B07H86NW64/ref=sr_1_121?qid=1576373476&refinements=p_n_feature_four_browse-bin%3A15197002011&rnid=14284837011&s=alexa-skills&sr=1-121
Lifestyle : Astrology	Daily Tarot from Haunted Road Media	2.9	9	https://www.amazon.com/Daily-Tarot-Haunted-Road-Media/dp/B078LG1HQP/ref=sr_1_122?qid=1576373476&refinements=p_n_feature_four_browse-bin%3A15197002011&rnid=14284837011&s=alexa-skills&sr=1-122
Lifestyle : Astrology	Astral Nina Daily Horoscope	2.9	15	https://www.amazon.com/Astral-Nina-Daily-Horoscope/dp/B079CTTMDY/ref=sr_1_123?qid=1576373476&refinements=p_n_feature_four_browse-bin%3A15197002011&rnid=14284837011&s=alexa-skills&sr=1-123
Lifestyle : Astrology	ELLE Horoscopes by The Astro Twins	4.1	25781	https://www.amazon.com/Hearst-ELLE-Horoscopes-Astro-Twins/dp/B019J1T6AU/ref=sr_1_124?qid=1576373476&refinements=p_n_feature_four_browse-bin%3A15197002011&rnid=14284837011&s=alexa-skills&sr=1-124
Lifestyle : Astrology	Aquarius Horoscope of the Day	2.8	6	https://www.amazon.com/Aquarius-Horoscope-of-the-Day/dp/B079VVWYXQ/ref=sr_1_125?qid=1576373476&refinements=p_n_feature_four_browse-bin%3A15197002011&rnid=14284837011&s=alexa-skills&sr=1-125
Lifestyle : Astrology	z Horo	2.8	7	https://www.amazon.com/Amber-z-Horo/dp/B01NCDY876/ref=sr_1_126?qid=1576373476&refinements=p_n_feature_four_browse-bin%3A15197002011&rnid=14284837011&s=alexa-skills&sr=1-126
Lifestyle : Astrology	Fortune Teller	2.6	3	https://www.amazon.com/Samay-Shamdasani-Fortune-Teller/dp/B01KELNKPG/ref=sr_1_127?qid=1576373476&refinements=p_n_feature_four_browse-bin%3A15197002011&rnid=14284837011&s=alexa-skills&sr=1-127
Lifestyle : Astrology	Daily Pisces Horoscope	2.0	1	https://www.amazon.com/DNAsoft-mobi-Daily-Pisces-Horoscope/dp/B07JZ4Z791/ref=sr_1_128?qid=1576373476&refinements=p_n_feature_four_browse-bin%3A15197002011&rnid=14284837011&s=alexa-skills&sr=1-128
Lifestyle : Astrology	Clickastro Horoscope	2.0	1	https://www.amazon.com/Astro-Vision-Futuretech-Pvt-Ltd-Clickastro-Horoscope/dp/B0749Q35CY/ref=sr_1_129?qid=1576373482&refinements=p_n_feature_four_browse-bin%3A15197002011&rnid=14284837011&s=alexa-skills&sr=1-129
Lifestyle : Astrology	Libra Horoscope of the Day	2.4	6	https://www.amazon.com/Libra-Horoscope-of-the-Day/dp/B079VSP7K9/ref=sr_1_130?qid=1576373482&refinements=p_n_feature_four_browse-bin%3A15197002011&rnid=14284837011&s=alexa-skills&sr=1-130
Lifestyle : Astrology	Capricorn Horoscope of the Day	1.0	1	https://www.amazon.com/Capricorn-Horoscope-of-the-Day/dp/B079VVM4LW/ref=sr_1_131?qid=1576373482&refinements=p_n_feature_four_browse-bin%3A15197002011&rnid=14284837011&s=alexa-skills&sr=1-131
Lifestyle : Astrology	Date & Zodiac trivia	1.0	1	https://www.amazon.com/Alberto-Vidana-Date-Zodiac-trivia/dp/B01FRBTO6M/ref=sr_1_132?qid=1576373482&refinements=p_n_feature_four_browse-bin%3A15197002011&rnid=14284837011&s=alexa-skills&sr=1-132
Lifestyle : Astrology	Cancer Horoscope of the Day	1.5	2	https://www.amazon.com/Cancer-Horoscope-of-the-Day/dp/B079VRRVKL/ref=sr_1_133?qid=1576373482&refinements=p_n_feature_four_browse-bin%3A15197002011&rnid=14284837011&s=alexa-skills&sr=1-133
Lifestyle : Astrology	Daily Horoscope	3.8	97	https://www.amazon.com/a-myers-inc-Daily-Horoscope/dp/B074WMR3M2/ref=sr_1_134?qid=1576373482&refinements=p_n_feature_four_browse-bin%3A15197002011&rnid=14284837011&s=alexa-skills&sr=1-134
Lifestyle : Astrology	Gemini Horoscope of the Day	1.6	3	https://www.amazon.com/Gemini-Horoscope-of-the-Day/dp/B079VWD8MX/ref=sr_1_135?qid=1576373482&refinements=p_n_feature_four_browse-bin%3A15197002011&rnid=14284837011&s=alexa-skills&sr=1-135
Lifestyle : Astrology	Horoscope Flash Briefing	1.9	6	https://www.amazon.com/Volley-Inc-Horoscope-Flash-Briefing/dp/B07FXGXMJF/ref=sr_1_136?qid=1576373482&refinements=p_n_feature_four_browse-bin%3A15197002011&rnid=14284837011&s=alexa-skills&sr=1-136
Lifestyle : Astrology	Pisces Horoscope of the Day	1.0	2	https://www.amazon.com/Pisces-Horoscope-of-the-Day/dp/B079VXXJ1B/ref=sr_1_137?qid=1576373482&refinements=p_n_feature_four_browse-bin%3A15197002011&rnid=14284837011&s=alexa-skills&sr=1-137
Lifestyle : Astrology	Leo Horoscope of the Day	1.0	2	https://www.amazon.com/Leo-Horoscope-of-the-Day/dp/B079VWQTN8/ref=sr_1_138?qid=1576373482&refinements=p_n_feature_four_browse-bin%3A15197002011&rnid=14284837011&s=alexa-skills&sr=1-138
Lifestyle : Astrology	Sagittarius Horoscope of the Day	1.0	2	https://www.amazon.com/Sagittarius-Horoscope-of-the-Day/dp/B079VSGDXT/ref=sr_1_139?qid=1576373482&refinements=p_n_feature_four_browse-bin%3A15197002011&rnid=14284837011&s=alexa-skills&sr=1-139
Lifestyle : Astrology	Night Sky 365	1.0	2	https://www.amazon.com/Billy-Newman-Photo-Night-Sky/dp/B077W8WT18/ref=sr_1_140?qid=1576373482&refinements=p_n_feature_four_browse-bin%3A15197002011&rnid=14284837011&s=alexa-skills&sr=1-140
Lifestyle : Astrology	My Horoscope	1.0	3	https://www.amazon.com/Vignesh-Studios-My-Horoscope/dp/B07FP388RX/ref=sr_1_141?qid=1576373482&refinements=p_n_feature_four_browse-bin%3A15197002011&rnid=14284837011&s=alexa-skills&sr=1-141
Lifestyle : Astrology	Taurus Horoscope of the Day	1.0	3	https://www.amazon.com/Taurus-Horoscope-of-the-Day/dp/B079VRMQ49/ref=sr_1_142?qid=1576373482&refinements=p_n_feature_four_browse-bin%3A15197002011&rnid=14284837011&s=alexa-skills&sr=1-142
Lifestyle : Astrology	Scorpio Horoscope of the Day	1.0	3	https://www.amazon.com/Scorpio-Horoscope-of-the-Day/dp/B079VR5WRJ/ref=sr_1_143?qid=1576373482&refinements=p_n_feature_four_browse-bin%3A15197002011&rnid=14284837011&s=alexa-skills&sr=1-143
Done Mozilla/5.0 (X11; Linux x86_64) AppleWebKit/537.36 (KHTML, like Gecko) Chrome/79.0.3945.79 Safari/537.36 9
