Lifestyle : Pets & Animals	Comfort My Dog	4.9	3135	https://www.amazon.com/Voice-Games-Relax-My-Dog/dp/B07JYYHV5L/ref=sr_1_1?qid=1576373234&refinements=p_n_feature_four_browse-bin%3A15197002011&rnid=14284837011&s=alexa-skills&sr=1-1
Lifestyle : Pets & Animals	Calm My Cat	4.9	1222	https://www.amazon.com/Voice-Games-Relax-My-Cat/dp/B07JZ775V3/ref=sr_1_2?qid=1576373234&refinements=p_n_feature_four_browse-bin%3A15197002011&rnid=14284837011&s=alexa-skills&sr=1-2
Lifestyle : Pets & Animals	MyPetDoc	4.6	124	https://www.amazon.com/Vet24seven-Inc-MyPetDoc/dp/B07FP2N457/ref=sr_1_3?qid=1576373234&refinements=p_n_feature_four_browse-bin%3A15197002011&rnid=14284837011&s=alexa-skills&sr=1-3
Lifestyle : Pets & Animals	Calm My Dog	4.6	304	https://www.amazon.com/Stephen-Brown-Calm-My-Dog/dp/B07G4B6WL4/ref=sr_1_4?qid=1576373234&refinements=p_n_feature_four_browse-bin%3A15197002011&rnid=14284837011&s=alexa-skills&sr=1-4
Lifestyle : Pets & Animals	Al the Dog Trainer	4.7	13	https://www.amazon.com/Longoriahaus-Dog-Training-the-Trainer/dp/B07H3TP97W/ref=sr_1_5?qid=1576373234&refinements=p_n_feature_four_browse-bin%3A15197002011&rnid=14284837011&s=alexa-skills&sr=1-5
Lifestyle : Pets & Animals	Dog teaser	5.0	7	https://www.amazon.com/RP-Apps-Dog-teaser/dp/B07NGQGN5P/ref=sr_1_6?qid=1576373234&refinements=p_n_feature_four_browse-bin%3A15197002011&rnid=14284837011&s=alexa-skills&sr=1-6
Lifestyle : Pets & Animals	Al’s Dog Training Tips	4.3	20	https://www.amazon.com/Longoriahaus-Dog-Training-Als-Tips/dp/B07H2WMDTV/ref=sr_1_7?qid=1576373234&refinements=p_n_feature_four_browse-bin%3A15197002011&rnid=14284837011&s=alexa-skills&sr=1-7
Lifestyle : Pets & Animals	Dog Squeaky Toy	4.4	30	https://www.amazon.com/Deal-Monkey-UK-Ltd-Squeaky/dp/B07HBNT5QM/ref=sr_1_8?qid=1576373234&refinements=p_n_feature_four_browse-bin%3A15197002011&rnid=14284837011&s=alexa-skills&sr=1-8
Lifestyle : Pets & Animals	Calm My Pet	4.5	12	https://www.amazon.com/Ashish-Calm-My-Pet/dp/B07SNP2BJM/ref=sr_1_9?qid=1576373234&refinements=p_n_feature_four_browse-bin%3A15197002011&rnid=14284837011&s=alexa-skills&sr=1-9
Lifestyle : Pets & Animals	Blackbird Song	5.0	5	https://www.amazon.com/AIMagnify-Blackbird-Song/dp/B07DGG6ZWC/ref=sr_1_10?qid=1576373234&refinements=p_n_feature_four_browse-bin%3A15197002011&rnid=14284837011&s=alexa-skills&sr=1-10
Lifestyle : Pets & Animals	Capital Pet	5.0	5	https://www.amazon.com/Voiceter-Pro-LLC-Capital-Pet/dp/B07B5R9HQ1/ref=sr_1_11?qid=1576373234&refinements=p_n_feature_four_browse-bin%3A15197002011&rnid=14284837011&s=alexa-skills&sr=1-11
Lifestyle : Pets & Animals	Best Friends Pet Resources	5.0	4	https://www.amazon.com/Best-Friends-Animal-Society-Resources/dp/B07SG9KTMV/ref=sr_1_12?qid=1576373234&refinements=p_n_feature_four_browse-bin%3A15197002011&rnid=14284837011&s=alexa-skills&sr=1-12
Lifestyle : Pets & Animals	Daily Dog Quotes	5.0	4	https://www.amazon.com/BAZRE-Daily-Dog-Quotes/dp/B07D31MJD6/ref=sr_1_13?qid=1576373234&refinements=p_n_feature_four_browse-bin%3A15197002011&rnid=14284837011&s=alexa-skills&sr=1-13
Lifestyle : Pets & Animals	Cat Sounds	4.0	19	https://www.amazon.com/LucentDreams-Cat-Sounds/dp/B078NM7RTG/ref=sr_1_14?qid=1576373234&refinements=p_n_feature_four_browse-bin%3A15197002011&rnid=14284837011&s=alexa-skills&sr=1-14
Lifestyle : Pets & Animals	Fish Tank for Echo Show	4.0	91	https://www.amazon.com/Fish-Tank-for-Echo-Show/dp/B07KR9C5L6/ref=sr_1_15?qid=1576373234&refinements=p_n_feature_four_browse-bin%3A15197002011&rnid=14284837011&s=alexa-skills&sr=1-15
Lifestyle : Pets & Animals	Natural Stress and Anxiety Relief for Rabbits	5.0	3	https://www.amazon.com/Natural-Stress-Anxiety-Relief-Rabbits/dp/B07FRBR578/ref=sr_1_16?qid=1576373234&refinements=p_n_feature_four_browse-bin%3A15197002011&rnid=14284837011&s=alexa-skills&sr=1-16
Lifestyle : Pets & Animals	What the Cluck Chicken and Egg Facts	5.0	3	https://www.amazon.com/What-Cluck-Chicken-Egg-Facts/dp/B07D23X2W2/ref=sr_1_17?qid=1576373241&refinements=p_n_feature_four_browse-bin%3A15197002011&rnid=14284837011&s=alexa-skills&sr=1-17
Lifestyle : Pets & Animals	Fascinating Cat Facts	5.0	4	https://www.amazon.com/Panda-Skills-Fascinating-Cat-Facts/dp/B07CKP9TM5/ref=sr_1_18?qid=1576373241&refinements=p_n_feature_four_browse-bin%3A15197002011&rnid=14284837011&s=alexa-skills&sr=1-18
Lifestyle : Pets & Animals	Howling Wolf Howling Wolves	4.5	5	https://www.amazon.com/Patrice-Porter-Howling-Wolf-Wolves/dp/B07DBD35XM/ref=sr_1_19?qid=1576373241&refinements=p_n_feature_four_browse-bin%3A15197002011&rnid=14284837011&s=alexa-skills&sr=1-19
Lifestyle : Pets & Animals	Gobble Gobble Sounds	3.1	5	https://www.amazon.com/GeezerNetwork-Gobble-Sounds/dp/B0774ZWCQH/ref=sr_1_20?qid=1576373241&refinements=p_n_feature_four_browse-bin%3A15197002011&rnid=14284837011&s=alexa-skills&sr=1-20
Lifestyle : Pets & Animals	Hill's Pet Nutrition	4.1	11	https://www.amazon.com/Hills-Pet-Nutrition/dp/B0788BFTZ7/ref=sr_1_21?qid=1576373241&refinements=p_n_feature_four_browse-bin%3A15197002011&rnid=14284837011&s=alexa-skills&sr=1-21
Lifestyle : Pets & Animals	Bird Chorus	4.1	7	https://www.amazon.com/Patrice-Porter-Bird-Chorus/dp/B07DBVXKQ1/ref=sr_1_22?qid=1576373241&refinements=p_n_feature_four_browse-bin%3A15197002011&rnid=14284837011&s=alexa-skills&sr=1-22
Lifestyle : Pets & Animals	Ask Purina	4.1	25	https://www.amazon.com/Purina-Ask/dp/B01M32CNSL/ref=sr_1_23?qid=1576373241&refinements=p_n_feature_four_browse-bin%3A15197002011&rnid=14284837011&s=alexa-skills&sr=1-23
Lifestyle : Pets & Animals	Nightingale Song	3.0	5	https://www.amazon.com/AIMagnify-Nightingale-Song/dp/B07DK77FBN/ref=sr_1_24?qid=1576373241&refinements=p_n_feature_four_browse-bin%3A15197002011&rnid=14284837011&s=alexa-skills&sr=1-24
Lifestyle : Pets & Animals	Jurassic Bark	3.9	36774	https://www.amazon.com/Amaury-Gallais-Jurassic-Bark/dp/B074S5G127/ref=sr_1_25?qid=1576373241&refinements=p_n_feature_four_browse-bin%3A15197002011&rnid=14284837011&s=alexa-skills&sr=1-25
Lifestyle : Pets & Animals	Dogs Security	5.0	2	https://www.amazon.com/Gaggle-Dogs-Security/dp/B07JF916NT/ref=sr_1_26?qid=1576373241&refinements=p_n_feature_four_browse-bin%3A15197002011&rnid=14284837011&s=alexa-skills&sr=1-26
Lifestyle : Pets & Animals	Big Cat Briefing	5.0	2	https://www.amazon.com/Big-Cat-Briefing/dp/B07GNK7L2X/ref=sr_1_27?qid=1576373241&refinements=p_n_feature_four_browse-bin%3A15197002011&rnid=14284837011&s=alexa-skills&sr=1-27
Lifestyle : Pets & Animals	Big Cat	5.0	2	https://www.amazon.com/Big-Cat/dp/B07GKT8Y11/ref=sr_1_28?qid=1576373241&refinements=p_n_feature_four_browse-bin%3A15197002011&rnid=14284837011&s=alexa-skills&sr=1-28
Lifestyle : Pets & Animals	Natural Stress and Anxiety Relief for Guinea Pigs	5.0	2	https://www.amazon.com/Natural-Stress-Anxiety-Relief-Guinea/dp/B07F8RGCV2/ref=sr_1_29?qid=1576373241&refinements=p_n_feature_four_browse-bin%3A15197002011&rnid=14284837011&s=alexa-skills&sr=1-29
Lifestyle : Pets & Animals	Dog Summer Safety Tips	5.0	2	https://www.amazon.com/RichLin-Dog-Summer-Safety-Tips/dp/B07DCJLCBS/ref=sr_1_30?qid=1576373241&refinements=p_n_feature_four_browse-bin%3A15197002011&rnid=14284837011&s=alexa-skills&sr=1-30
Lifestyle : Pets & Animals	U.S. Bird of the Day	5.0	3	https://www.amazon.com/U-S-Bird-of-the-Day/dp/B07112ZCHR/ref=sr_1_31?qid=1576373241&refinements=p_n_feature_four_browse-bin%3A15197002011&rnid=14284837011&s=alexa-skills&sr=1-31
Lifestyle : Pets & Animals	Purring Cat	4.3	7	https://www.amazon.com/Patrice-Porter-Purring-Cat/dp/B07GDJ3ZGN/ref=sr_1_32?qid=1576373241&refinements=p_n_feature_four_browse-bin%3A15197002011&rnid=14284837011&s=alexa-skills&sr=1-32
Lifestyle : Pets & Animals	Dog Facts	4.3	670	https://www.amazon.com/Randomvoids-Dog-Facts/dp/B0193ZD0EU/ref=sr_1_33?qid=1576373247&refinements=p_n_feature_four_browse-bin%3A15197002011&rnid=14284837011&s=alexa-skills&sr=1-33
Lifestyle : Pets & Animals	VCA Animal Hospitals	4.1	15	https://www.amazon.com/VCA-INC-Animal-Hospitals/dp/B07KYS1Y1X/ref=sr_1_34?qid=1576373247&refinements=p_n_feature_four_browse-bin%3A15197002011&rnid=14284837011&s=alexa-skills&sr=1-34
Lifestyle : Pets & Animals	Puppy Jams	4.1	8	https://www.amazon.com/iHeartRadio-Puppy-Jams/dp/B07RK6567J/ref=sr_1_35?qid=1576373247&refinements=p_n_feature_four_browse-bin%3A15197002011&rnid=14284837011&s=alexa-skills&sr=1-35
Lifestyle : Pets & Animals	Budgie Babble	3.7	13	https://www.amazon.com/EDUYou-Budgie-Babble/dp/B07DBY86DZ/ref=sr_1_36?qid=1576373247&refinements=p_n_feature_four_browse-bin%3A15197002011&rnid=14284837011&s=alexa-skills&sr=1-36
Lifestyle : Pets & Animals	PetSafe® Smart Feed	4.2	11	https://www.amazon.com/PetSafe-PetSafe%C2%AE-Smart-Feed/dp/B07RRSW2SV/ref=sr_1_37?qid=1576373247&refinements=p_n_feature_four_browse-bin%3A15197002011&rnid=14284837011&s=alexa-skills&sr=1-37
Lifestyle : Pets & Animals	Relax My Pet	4.6	3	https://www.amazon.com/Simmba-Relax-My-Pet/dp/B07YDRSPM3/ref=sr_1_38?qid=1576373247&refinements=p_n_feature_four_browse-bin%3A15197002011&rnid=14284837011&s=alexa-skills&sr=1-38
Lifestyle : Pets & Animals	Fish Tank for Echo Show, Echo Spot	3.6	6	https://www.amazon.com/Fish-Tank-Echo-Show-Spot/dp/B07X47R7X8/ref=sr_1_39?qid=1576373247&refinements=p_n_feature_four_browse-bin%3A15197002011&rnid=14284837011&s=alexa-skills&sr=1-39
Lifestyle : Pets & Animals	Name My Cat	4.5	2	https://www.amazon.com/Skribbs-Name-My-Cat/dp/B07BCT5B9W/ref=sr_1_40?qid=1576373247&refinements=p_n_feature_four_browse-bin%3A15197002011&rnid=14284837011&s=alexa-skills&sr=1-40
Lifestyle : Pets & Animals	Animal Talk	4.6	3	https://www.amazon.com/Daniel-Lopez-D-O-Animal-Talk/dp/B07BTLGZF5/ref=sr_1_41?qid=1576373247&refinements=p_n_feature_four_browse-bin%3A15197002011&rnid=14284837011&s=alexa-skills&sr=1-41
Lifestyle : Pets & Animals	EcoSmart Live	4.2	23	https://www.amazon.com/EcoTech-Marine-LLC-EcoSmart-Live/dp/B06W2M1SVN/ref=sr_1_42?qid=1576373247&refinements=p_n_feature_four_browse-bin%3A15197002011&rnid=14284837011&s=alexa-skills&sr=1-42
Lifestyle : Pets & Animals	Koi Fish	5.0	1	https://www.amazon.com/DreamPixels-Koi-Fish/dp/B082FYC889/ref=sr_1_43?qid=1576373247&refinements=p_n_feature_four_browse-bin%3A15197002011&rnid=14284837011&s=alexa-skills&sr=1-43
Lifestyle : Pets & Animals	Relax My Dog Official	5.0	1	https://www.amazon.com/Polypack-uk-Ltd-Relax-Dog-Official/dp/B081CNKJKB/ref=sr_1_44?qid=1576373247&refinements=p_n_feature_four_browse-bin%3A15197002011&rnid=14284837011&s=alexa-skills&sr=1-44
Lifestyle : Pets & Animals	llama facts	5.0	1	https://www.amazon.com/Sergio-L%C3%B3pez-llama-facts/dp/B07Z8GXWJN/ref=sr_1_45?qid=1576373247&refinements=p_n_feature_four_browse-bin%3A15197002011&rnid=14284837011&s=alexa-skills&sr=1-45
Lifestyle : Pets & Animals	Cat Data	5.0	1	https://www.amazon.com/KaleighB-Cat-Data/dp/B07W3KDF8S/ref=sr_1_46?qid=1576373247&refinements=p_n_feature_four_browse-bin%3A15197002011&rnid=14284837011&s=alexa-skills&sr=1-46
Lifestyle : Pets & Animals	Colors of Nature Screensaver for Echo Show	4.7	4	https://www.amazon.com/Colors-Nature-Screensaver-Echo-Show/dp/B07VDD2P6P/ref=sr_1_47?qid=1576373247&refinements=p_n_feature_four_browse-bin%3A15197002011&rnid=14284837011&s=alexa-skills&sr=1-47
Lifestyle : Pets & Animals	Mama's Special Story	5.0	1	https://www.amazon.com/Candy-Johnson-Mamas-Special-Story/dp/B07RRHD7G1/ref=sr_1_48?qid=1576373247&refinements=p_n_feature_four_browse-bin%3A15197002011&rnid=14284837011&s=alexa-skills&sr=1-48
Lifestyle : Pets & Animals	animalist	5.0	1	https://www.amazon.com/vuk309-animalist/dp/B07RGHZV6P/ref=sr_1_49?qid=1576373254&refinements=p_n_feature_four_browse-bin%3A15197002011&rnid=14284837011&s=alexa-skills&sr=1-49
Lifestyle : Pets & Animals	Kitten Update	5.0	2	https://www.amazon.com/Sam-Proof-Kitten-Update/dp/B07RCFXZZ6/ref=sr_1_50?qid=1576373254&refinements=p_n_feature_four_browse-bin%3A15197002011&rnid=14284837011&s=alexa-skills&sr=1-50
Lifestyle : Pets & Animals	Pets Relax: Relaxation + chill-out music for Pets	5.0	3	https://www.amazon.com/Pets-Relax-Relaxation-chill-out-music/dp/B07QXZPWW8/ref=sr_1_51?qid=1576373254&refinements=p_n_feature_four_browse-bin%3A15197002011&rnid=14284837011&s=alexa-skills&sr=1-51
Lifestyle : Pets & Animals	Animal Parade	5.0	2	https://www.amazon.com/Voice-Data-Soft-Animal-Parade/dp/B07NMWPC2N/ref=sr_1_52?qid=1576373254&refinements=p_n_feature_four_browse-bin%3A15197002011&rnid=14284837011&s=alexa-skills&sr=1-52
Lifestyle : Pets & Animals	What does my cat want	4.4	2	https://www.amazon.com/What-does-my-cat-want/dp/B07KHY46YG/ref=sr_1_53?qid=1576373254&refinements=p_n_feature_four_browse-bin%3A15197002011&rnid=14284837011&s=alexa-skills&sr=1-53
Lifestyle : Pets & Animals	Tiger Facts	4.4	2	https://www.amazon.com/k2ly2n-Tiger-Facts/dp/B07JNMCP27/ref=sr_1_54?qid=1576373254&refinements=p_n_feature_four_browse-bin%3A15197002011&rnid=14284837011&s=alexa-skills&sr=1-54
Lifestyle : Pets & Animals	Pomeranian facts and tips	5.0	1	https://www.amazon.com/seattleitegirl-Pomeranian-facts-and-tips/dp/B07JMQ3B8L/ref=sr_1_55?qid=1576373254&refinements=p_n_feature_four_browse-bin%3A15197002011&rnid=14284837011&s=alexa-skills&sr=1-55
Lifestyle : Pets & Animals	Daily corgi	2.8	2	https://www.amazon.com/sarayau-Daily-corgi/dp/B07JM1TSL1/ref=sr_1_56?qid=1576373254&refinements=p_n_feature_four_browse-bin%3A15197002011&rnid=14284837011&s=alexa-skills&sr=1-56
Lifestyle : Pets & Animals	Fast Animal Facts	5.0	1	https://www.amazon.com/ButtonPushApps-Fast-Animal-Facts/dp/B07JJL88MK/ref=sr_1_57?qid=1576373254&refinements=p_n_feature_four_browse-bin%3A15197002011&rnid=14284837011&s=alexa-skills&sr=1-57
Lifestyle : Pets & Animals	Natural Stress and Anxiety Relief for Hamsters	5.0	1	https://www.amazon.com/Natural-Stress-Anxiety-Relief-Hamsters/dp/B07FRC82SY/ref=sr_1_58?qid=1576373254&refinements=p_n_feature_four_browse-bin%3A15197002011&rnid=14284837011&s=alexa-skills&sr=1-58
Lifestyle : Pets & Animals	Labrador Facts -Puppy Lab Doggo Retriever Dog Talk	5.0	1	https://www.amazon.com/Labrador-Facts-Puppy-Doggo-Retriever/dp/B07FR6Y3GN/ref=sr_1_59?qid=1576373254&refinements=p_n_feature_four_browse-bin%3A15197002011&rnid=14284837011&s=alexa-skills&sr=1-59
Lifestyle : Pets & Animals	Pet Dinner Call	5.0	1	https://www.amazon.com/EDUYou-Pet-Dinner-Call/dp/B07DYP8N8R/ref=sr_1_60?qid=1576373254&refinements=p_n_feature_four_browse-bin%3A15197002011&rnid=14284837011&s=alexa-skills&sr=1-60
Lifestyle : Pets & Animals	Dog Care	5.0	1	https://www.amazon.com/Ambro-Group-Inc-Dog-Care/dp/B07DTDC37G/ref=sr_1_61?qid=1576373254&refinements=p_n_feature_four_browse-bin%3A15197002011&rnid=14284837011&s=alexa-skills&sr=1-61
Lifestyle : Pets & Animals	Growling Grizzly Bear	5.0	1	https://www.amazon.com/Patrice-Porter-Growling-Grizzly-Bear/dp/B07DHJC94H/ref=sr_1_62?qid=1576373254&refinements=p_n_feature_four_browse-bin%3A15197002011&rnid=14284837011&s=alexa-skills&sr=1-62
Lifestyle : Pets & Animals	Beagle Facts	5.0	3	https://www.amazon.com/MikeInColorado-Beagle-Facts/dp/B07CT9QF3S/ref=sr_1_63?qid=1576373254&refinements=p_n_feature_four_browse-bin%3A15197002011&rnid=14284837011&s=alexa-skills&sr=1-63
Lifestyle : Pets & Animals	Fascinating Dog Facts	4.4	2	https://www.amazon.com/Panda-Skills-Fascinating-Dog-Facts/dp/B07CL7QRTC/ref=sr_1_64?qid=1576373254&refinements=p_n_feature_four_browse-bin%3A15197002011&rnid=14284837011&s=alexa-skills&sr=1-64
Lifestyle : Pets & Animals	JustAnswer Dog Help	5.0	1	https://www.amazon.com/JustAnswer-LLC-Dog-Help/dp/B07C36WQKR/ref=sr_1_65?qid=1576373261&refinements=p_n_feature_four_browse-bin%3A15197002011&rnid=14284837011&s=alexa-skills&sr=1-65
Lifestyle : Pets & Animals	PetChatz	5.0	3	https://www.amazon.com/Anser-Innovation-PetChatz/dp/B07BNWBFF3/ref=sr_1_66?qid=1576373261&refinements=p_n_feature_four_browse-bin%3A15197002011&rnid=14284837011&s=alexa-skills&sr=1-66
Lifestyle : Pets & Animals	Dog Facts	4.3	8	https://www.amazon.com/SmartHouse-UG-Dog-Facts/dp/B079WMWJGW/ref=sr_1_67?qid=1576373261&refinements=p_n_feature_four_browse-bin%3A15197002011&rnid=14284837011&s=alexa-skills&sr=1-67
Lifestyle : Pets & Animals	Dog Rates	5.0	1	https://www.amazon.com/Troy-Jones-Dog-Rates/dp/B078SBL4LK/ref=sr_1_68?qid=1576373261&refinements=p_n_feature_four_browse-bin%3A15197002011&rnid=14284837011&s=alexa-skills&sr=1-68
Lifestyle : Pets & Animals	Name Generator	3.4	13	https://www.amazon.com/Maddie-Scalia-Name-Generator/dp/B077J4QDG6/ref=sr_1_69?qid=1576373261&refinements=p_n_feature_four_browse-bin%3A15197002011&rnid=14284837011&s=alexa-skills&sr=1-69
Lifestyle : Pets & Animals	Adopt A Pet	5.0	1	https://www.amazon.com/Nick-Coury-Adopt-A-Pet/dp/B0746FHXLY/ref=sr_1_70?qid=1576373261&refinements=p_n_feature_four_browse-bin%3A15197002011&rnid=14284837011&s=alexa-skills&sr=1-70
Lifestyle : Pets & Animals	parrot facts	5.0	1	https://www.amazon.com/Angela-Wong-parrot-facts/dp/B06XKBCW92/ref=sr_1_71?qid=1576373261&refinements=p_n_feature_four_browse-bin%3A15197002011&rnid=14284837011&s=alexa-skills&sr=1-71
Lifestyle : Pets & Animals	Facts about Samoyeds	2.2	2	https://www.amazon.com/connies0nguyen-Facts-about-Samoyeds/dp/B01L4UT9HO/ref=sr_1_72?qid=1576373261&refinements=p_n_feature_four_browse-bin%3A15197002011&rnid=14284837011&s=alexa-skills&sr=1-72
Lifestyle : Pets & Animals	cat facts	4.4	9	https://www.amazon.com/laird-cat-facts/dp/B01GM0MSSI/ref=sr_1_73?qid=1576373261&refinements=p_n_feature_four_browse-bin%3A15197002011&rnid=14284837011&s=alexa-skills&sr=1-73
Lifestyle : Pets & Animals	Kitty Kitty	3.9	1013	https://www.amazon.com/Boldus-Kitty/dp/B078BN33GP/ref=sr_1_74?qid=1576373261&refinements=p_n_feature_four_browse-bin%3A15197002011&rnid=14284837011&s=alexa-skills&sr=1-74
Lifestyle : Pets & Animals	Screaming Goat	4.0	2	https://www.amazon.com/Gaggle-Screaming-Goat/dp/B082P92C7P/ref=sr_1_75?qid=1576373261&refinements=p_n_feature_four_browse-bin%3A15197002011&rnid=14284837011&s=alexa-skills&sr=1-75
Lifestyle : Pets & Animals	Rover.com Dog Name Generator	3.3	558	https://www.amazon.com/Rover-com-Dog-Name-Generator/dp/B075RVW22W/ref=sr_1_76?qid=1576373261&refinements=p_n_feature_four_browse-bin%3A15197002011&rnid=14284837011&s=alexa-skills&sr=1-76
Lifestyle : Pets & Animals	Random Bird Call	4.0	3	https://www.amazon.com/Ronald-Long-Random-Bird-Call/dp/B07W55QDL7/ref=sr_1_77?qid=1576373261&refinements=p_n_feature_four_browse-bin%3A15197002011&rnid=14284837011&s=alexa-skills&sr=1-77
Lifestyle : Pets & Animals	Good Pup	3.4	5	https://www.amazon.com/C-Savinell-Good-Pup/dp/B075ZN6S7W/ref=sr_1_78?qid=1576373261&refinements=p_n_feature_four_browse-bin%3A15197002011&rnid=14284837011&s=alexa-skills&sr=1-78
Lifestyle : Pets & Animals	Aquarium Screensaver for Echo Show	3.9	114	https://www.amazon.com/Aquarium-Screensaver-for-Echo-Show/dp/B07KRVFTM7/ref=sr_1_79?qid=1576373261&refinements=p_n_feature_four_browse-bin%3A15197002011&rnid=14284837011&s=alexa-skills&sr=1-79
Lifestyle : Pets & Animals	What is my cat name	None	None	https://www.amazon.com/dp/B082QVJL46/ref=sr_1_80?qid=1576373261&refinements=p_n_feature_four_browse-bin%3A15197002011&rnid=14284837011&s=alexa-skills&sr=1-80
Lifestyle : Pets & Animals	Goat Sounds	None	None	https://www.amazon.com/Gaggle-Goat-Sounds/dp/B082PGZXDV/ref=sr_1_81?qid=1576373268&refinements=p_n_feature_four_browse-bin%3A15197002011&rnid=14284837011&s=alexa-skills&sr=1-81
Lifestyle : Pets & Animals	Daily Dog	None	None	https://www.amazon.com/Immortality-LTD-Daily-Dog/dp/B082CSZY62/ref=sr_1_82?qid=1576373268&refinements=p_n_feature_four_browse-bin%3A15197002011&rnid=14284837011&s=alexa-skills&sr=1-82
Lifestyle : Pets & Animals	Dog Sitter	None	None	https://www.amazon.com/Xavier-Perez-Dog-Sitter/dp/B082B8VJ64/ref=sr_1_83?qid=1576373268&refinements=p_n_feature_four_browse-bin%3A15197002011&rnid=14284837011&s=alexa-skills&sr=1-83
Lifestyle : Pets & Animals	Healthy Pet Lifestyle And Organic Lifestyle Tips	None	None	https://www.amazon.com/Healthy-Pet-Lifestyle-Organic-Tips/dp/B08221CDMD/ref=sr_1_84?qid=1576373268&refinements=p_n_feature_four_browse-bin%3A15197002011&rnid=14284837011&s=alexa-skills&sr=1-84
Lifestyle : Pets & Animals	Barking Dog For Routines	None	None	https://www.amazon.com/Voice-Apps-That-Rock-Routines/dp/B0821BXMPM/ref=sr_1_85?qid=1576373268&refinements=p_n_feature_four_browse-bin%3A15197002011&rnid=14284837011&s=alexa-skills&sr=1-85
Lifestyle : Pets & Animals	Scare cats	None	None	https://www.amazon.com/Andrei-Scare-cats/dp/B081YZHH8L/ref=sr_1_86?qid=1576373268&refinements=p_n_feature_four_browse-bin%3A15197002011&rnid=14284837011&s=alexa-skills&sr=1-86
Lifestyle : Pets & Animals	Cat Facts	None	None	https://www.amazon.com/phijapps-Cat-Facts/dp/B081YJF2W3/ref=sr_1_87?qid=1576373268&refinements=p_n_feature_four_browse-bin%3A15197002011&rnid=14284837011&s=alexa-skills&sr=1-87
Lifestyle : Pets & Animals	Era ram	None	None	https://www.amazon.com/Animal-Era-ram/dp/B081XDX97R/ref=sr_1_88?qid=1576373268&refinements=p_n_feature_four_browse-bin%3A15197002011&rnid=14284837011&s=alexa-skills&sr=1-88
Lifestyle : Pets & Animals	Facts of cats	None	None	https://www.amazon.com/deadly-print-Facts-of-cats/dp/B081W4DN3G/ref=sr_1_89?qid=1576373268&refinements=p_n_feature_four_browse-bin%3A15197002011&rnid=14284837011&s=alexa-skills&sr=1-89
Lifestyle : Pets & Animals	Dog's facts	None	None	https://www.amazon.com/Skillz-Dogs-facts/dp/B081V56TL4/ref=sr_1_90?qid=1576373268&refinements=p_n_feature_four_browse-bin%3A15197002011&rnid=14284837011&s=alexa-skills&sr=1-90
Lifestyle : Pets & Animals	pet adopt	None	None	https://www.amazon.com/Yi-Jin-pet-adopt/dp/B081SWFLNT/ref=sr_1_91?qid=1576373268&refinements=p_n_feature_four_browse-bin%3A15197002011&rnid=14284837011&s=alexa-skills&sr=1-91
Lifestyle : Pets & Animals	dog bark	1.0	1	https://www.amazon.com/Sis-dog-bark/dp/B081SSQXHB/ref=sr_1_92?qid=1576373268&refinements=p_n_feature_four_browse-bin%3A15197002011&rnid=14284837011&s=alexa-skills&sr=1-92
Lifestyle : Pets & Animals	be my pig	None	None	https://www.amazon.com/SiriMeiyi-be-my-pig/dp/B081R6KNRG/ref=sr_1_93?qid=1576373268&refinements=p_n_feature_four_browse-bin%3A15197002011&rnid=14284837011&s=alexa-skills&sr=1-93
Lifestyle : Pets & Animals	Kitten names	None	None	https://www.amazon.com/Arag%C3%BCez-App-Kitten-names/dp/B081DW59HS/ref=sr_1_94?qid=1576373268&refinements=p_n_feature_four_browse-bin%3A15197002011&rnid=14284837011&s=alexa-skills&sr=1-94
Lifestyle : Pets & Animals	Relax My Cat Official	None	None	https://www.amazon.com/Polypack-uk-Ltd-Relax-Cat-Official/dp/B081D16954/ref=sr_1_95?qid=1576373268&refinements=p_n_feature_four_browse-bin%3A15197002011&rnid=14284837011&s=alexa-skills&sr=1-95
Lifestyle : Pets & Animals	Tiger	None	None	https://www.amazon.com/Manpreet-Tiger/dp/B07ZTF8MN1/ref=sr_1_96?qid=1576373268&refinements=p_n_feature_four_browse-bin%3A15197002011&rnid=14284837011&s=alexa-skills&sr=1-96
Lifestyle : Pets & Animals	Global animals curiosities	None	None	https://www.amazon.com/Avoris-Global-animals-curiosities/dp/B07ZSWR6MB/ref=sr_1_97?qid=1576373274&refinements=p_n_feature_four_browse-bin%3A15197002011&rnid=14284837011&s=alexa-skills&sr=1-97
Lifestyle : Pets & Animals	Pet Walk	None	None	https://www.amazon.com/Victor-Pet-Walk/dp/B07ZR8XRRX/ref=sr_1_98?qid=1576373274&refinements=p_n_feature_four_browse-bin%3A15197002011&rnid=14284837011&s=alexa-skills&sr=1-98
Lifestyle : Pets & Animals	Best Puppy Names	5.0	1	https://www.amazon.com/Kim-McCormick-Best-Puppy-Names/dp/B07ZR5T3RB/ref=sr_1_99?qid=1576373274&refinements=p_n_feature_four_browse-bin%3A15197002011&rnid=14284837011&s=alexa-skills&sr=1-99
Lifestyle : Pets & Animals	Cats Fact	None	None	https://www.amazon.com/Lidia-Cats-Fact/dp/B07ZMXVBVW/ref=sr_1_100?qid=1576373274&refinements=p_n_feature_four_browse-bin%3A15197002011&rnid=14284837011&s=alexa-skills&sr=1-100
Lifestyle : Pets & Animals	Dog Facts	None	None	https://www.amazon.com/Jasmin-Infotech-Pvt-Ltd-Facts/dp/B07ZJ3T7XQ/ref=sr_1_101?qid=1576373274&refinements=p_n_feature_four_browse-bin%3A15197002011&rnid=14284837011&s=alexa-skills&sr=1-101
Lifestyle : Pets & Animals	Cat pictures	None	None	https://www.amazon.com/Tobias-Herber-Cat-pictures/dp/B07ZHZ4Y85/ref=sr_1_102?qid=1576373274&refinements=p_n_feature_four_browse-bin%3A15197002011&rnid=14284837011&s=alexa-skills&sr=1-102
Lifestyle : Pets & Animals	Llama Facts	None	None	https://www.amazon.com/Cristian-Llama-Facts/dp/B07Z8H2QWX/ref=sr_1_103?qid=1576373274&refinements=p_n_feature_four_browse-bin%3A15197002011&rnid=14284837011&s=alexa-skills&sr=1-103
Lifestyle : Pets & Animals	cats facts	None	None	https://www.amazon.com/SilvicGames-cats-facts/dp/B07Z5NJNMP/ref=sr_1_104?qid=1576373274&refinements=p_n_feature_four_browse-bin%3A15197002011&rnid=14284837011&s=alexa-skills&sr=1-104
Lifestyle : Pets & Animals	My_First_Skill	None	None	https://www.amazon.com/Sajeev-Mahajan-My_First_Skill/dp/B07Z4HJLSX/ref=sr_1_105?qid=1576373274&refinements=p_n_feature_four_browse-bin%3A15197002011&rnid=14284837011&s=alexa-skills&sr=1-105
Lifestyle : Pets & Animals	dad material	None	None	https://www.amazon.com/VayuVaidya-Dr-Bheemaiah-Anil-Kumar/dp/B07YSZ918D/ref=sr_1_106?qid=1576373274&refinements=p_n_feature_four_browse-bin%3A15197002011&rnid=14284837011&s=alexa-skills&sr=1-106
Lifestyle : Pets & Animals	Daily Dog Training Tips	None	None	https://www.amazon.com/Lester-Wilson-Daily-Training-Tips/dp/B07YNR7KJ1/ref=sr_1_107?qid=1576373274&refinements=p_n_feature_four_browse-bin%3A15197002011&rnid=14284837011&s=alexa-skills&sr=1-107
Lifestyle : Pets & Animals	Pomeranian Training Tips	None	None	https://www.amazon.com/JCAppz-Pomeranian-Training-Tips/dp/B07YD5YXN6/ref=sr_1_108?qid=1576373274&refinements=p_n_feature_four_browse-bin%3A15197002011&rnid=14284837011&s=alexa-skills&sr=1-108
Lifestyle : Pets & Animals	Beagle Training Tips	None	None	https://www.amazon.com/JCAppz-Beagle-Training-Tips/dp/B07YD4XLNN/ref=sr_1_109?qid=1576373274&refinements=p_n_feature_four_browse-bin%3A15197002011&rnid=14284837011&s=alexa-skills&sr=1-109
Lifestyle : Pets & Animals	Bulldog Training Tips	None	None	https://www.amazon.com/JCAppz-Bulldog-Training-Tips/dp/B07YCZWP6Z/ref=sr_1_110?qid=1576373274&refinements=p_n_feature_four_browse-bin%3A15197002011&rnid=14284837011&s=alexa-skills&sr=1-110
Lifestyle : Pets & Animals	The Hungry Dog	3.0	1	https://www.amazon.com/Voicebox-Apps-The-Hungry-Dog/dp/B07YB72617/ref=sr_1_111?qid=1576373274&refinements=p_n_feature_four_browse-bin%3A15197002011&rnid=14284837011&s=alexa-skills&sr=1-111
Lifestyle : Pets & Animals	Labrador Dog Tips	None	None	https://www.amazon.com/JCAppz-Labrador-Dog-Tips/dp/B07Y9Q39N3/ref=sr_1_112?qid=1576373274&refinements=p_n_feature_four_browse-bin%3A15197002011&rnid=14284837011&s=alexa-skills&sr=1-112
Lifestyle : Pets & Animals	German Shepherd Training Tips	None	None	https://www.amazon.com/JCAppz-German-Shepherd-Training-Tips/dp/B07Y9PTZ5V/ref=sr_1_113?qid=1576373281&refinements=p_n_feature_four_browse-bin%3A15197002011&rnid=14284837011&s=alexa-skills&sr=1-113
Lifestyle : Pets & Animals	Pug Dog Training Tips	None	None	https://www.amazon.com/JCAppz-Pug-Dog-Training-Tips/dp/B07Y9FPLQP/ref=sr_1_114?qid=1576373281&refinements=p_n_feature_four_browse-bin%3A15197002011&rnid=14284837011&s=alexa-skills&sr=1-114
Lifestyle : Pets & Animals	Siberian Husky Training Tips	None	None	https://www.amazon.com/JCAppz-Siberian-Husky-Training-Tips/dp/B07Y9D7YGK/ref=sr_1_115?qid=1576373281&refinements=p_n_feature_four_browse-bin%3A15197002011&rnid=14284837011&s=alexa-skills&sr=1-115
Lifestyle : Pets & Animals	Egg Checker	5.0	1	https://www.amazon.com/Matt-Hanover-Egg-Checker/dp/B07XP5SZK9/ref=sr_1_116?qid=1576373281&refinements=p_n_feature_four_browse-bin%3A15197002011&rnid=14284837011&s=alexa-skills&sr=1-116
Lifestyle : Pets & Animals	Miss Sugar's Moving Diary	None	None	https://www.amazon.com/Witlingo-Miss-Sugars-Moving-Diary/dp/B07XP2RWMC/ref=sr_1_117?qid=1576373281&refinements=p_n_feature_four_browse-bin%3A15197002011&rnid=14284837011&s=alexa-skills&sr=1-117
Lifestyle : Pets & Animals	Puppy Pictures	2.7	5	https://www.amazon.com/VoiceSkillsInc-Puppy-Pictures/dp/B07XJ4PJ4J/ref=sr_1_118?qid=1576373281&refinements=p_n_feature_four_browse-bin%3A15197002011&rnid=14284837011&s=alexa-skills&sr=1-118
Lifestyle : Pets & Animals	Orange Cat Facts	None	None	https://www.amazon.com/Dilip-jain-Orange-Cat-Facts/dp/B07X9R7H5K/ref=sr_1_119?qid=1576373281&refinements=p_n_feature_four_browse-bin%3A15197002011&rnid=14284837011&s=alexa-skills&sr=1-119
Lifestyle : Pets & Animals	Norman Facts	None	None	https://www.amazon.com/Noah-Estrada-Rand-Norman-Facts/dp/B07X1GXTGV/ref=sr_1_120?qid=1576373281&refinements=p_n_feature_four_browse-bin%3A15197002011&rnid=14284837011&s=alexa-skills&sr=1-120
Lifestyle : Pets & Animals	Pony Facts	5.0	1	https://www.amazon.com/TopherTech-Pony-Facts/dp/B07WHZZ6NG/ref=sr_1_121?qid=1576373281&refinements=p_n_feature_four_browse-bin%3A15197002011&rnid=14284837011&s=alexa-skills&sr=1-121
Lifestyle : Pets & Animals	Troll My Dog	None	None	https://www.amazon.com/Astroid-Blues-Troll-My-Dog/dp/B07W6Z7LJJ/ref=sr_1_122?qid=1576373281&refinements=p_n_feature_four_browse-bin%3A15197002011&rnid=14284837011&s=alexa-skills&sr=1-122
Lifestyle : Pets & Animals	Fun facts about rabbits	None	None	https://www.amazon.com/SusanaDev-Fun-facts-about-rabbits/dp/B07TQG4Q8N/ref=sr_1_123?qid=1576373281&refinements=p_n_feature_four_browse-bin%3A15197002011&rnid=14284837011&s=alexa-skills&sr=1-123
Lifestyle : Pets & Animals	Pooch Facts	None	None	https://www.amazon.com/Sapp-Pooch-Facts/dp/B07T1YGX3S/ref=sr_1_124?qid=1576373281&refinements=p_n_feature_four_browse-bin%3A15197002011&rnid=14284837011&s=alexa-skills&sr=1-124
Lifestyle : Pets & Animals	Barkibu	None	None	https://www.amazon.com/Barkibu/dp/B07SJP2R3K/ref=sr_1_125?qid=1576373281&refinements=p_n_feature_four_browse-bin%3A15197002011&rnid=14284837011&s=alexa-skills&sr=1-125
Lifestyle : Pets & Animals	Converse Animal Shelter	None	None	https://www.amazon.com/MateMedia-Converse-Animal-Shelter/dp/B07SFVT392/ref=sr_1_126?qid=1576373281&refinements=p_n_feature_four_browse-bin%3A15197002011&rnid=14284837011&s=alexa-skills&sr=1-126
Lifestyle : Pets & Animals	Nyan Cat	3.9	16	https://www.amazon.com/Phy-Hopat-Nyan-Cat/dp/B07RP8CCYD/ref=sr_1_127?qid=1576373281&refinements=p_n_feature_four_browse-bin%3A15197002011&rnid=14284837011&s=alexa-skills&sr=1-127
Lifestyle : Pets & Animals	INTERSTELLAR OCEANS	None	None	https://www.amazon.com/HCBCHEMISTRY-COM-INTERSTELLAR-OCEANS/dp/B07RK6TFM7/ref=sr_1_128?qid=1576373281&refinements=p_n_feature_four_browse-bin%3A15197002011&rnid=14284837011&s=alexa-skills&sr=1-128
Lifestyle : Pets & Animals	Aquarium Planner	1.0	1	https://www.amazon.com/sompomedia-Aquarium-Planner/dp/B07R79D7TB/ref=sr_1_129?qid=1576373287&refinements=p_n_feature_four_browse-bin%3A15197002011&rnid=14284837011&s=alexa-skills&sr=1-129
Lifestyle : Pets & Animals	Dog Facts	None	None	https://www.amazon.com/grigor-Dog-Facts/dp/B07R1VMHQY/ref=sr_1_130?qid=1576373287&refinements=p_n_feature_four_browse-bin%3A15197002011&rnid=14284837011&s=alexa-skills&sr=1-130
Lifestyle : Pets & Animals	Kitty Feeder	None	None	https://www.amazon.com/swannyswanster-Kitty-Feeder/dp/B07QPJ2Y4W/ref=sr_1_131?qid=1576373287&refinements=p_n_feature_four_browse-bin%3A15197002011&rnid=14284837011&s=alexa-skills&sr=1-131
Lifestyle : Pets & Animals	Pet My Easter Bunny	None	None	https://www.amazon.com/HUGO-FM-Pet-My-Easter-Bunny/dp/B07QF94FHM/ref=sr_1_132?qid=1576373287&refinements=p_n_feature_four_browse-bin%3A15197002011&rnid=14284837011&s=alexa-skills&sr=1-132
Lifestyle : Pets & Animals	What Is My Dog Name	3.0	220	https://www.amazon.com/What-Is-My-Dog-Name/dp/B07QB5W2CZ/ref=sr_1_133?qid=1576373287&refinements=p_n_feature_four_browse-bin%3A15197002011&rnid=14284837011&s=alexa-skills&sr=1-133
Lifestyle : Pets & Animals	Tractive GPS	4.0	2	https://www.amazon.com/Tractive-GPS/dp/B07PFKFRCR/ref=sr_1_134?qid=1576373287&refinements=p_n_feature_four_browse-bin%3A15197002011&rnid=14284837011&s=alexa-skills&sr=1-134
Lifestyle : Pets & Animals	Perfect Pup Blog	None	None	https://www.amazon.com/Pupford-Perfect-Pup-Blog/dp/B07P5SN3YR/ref=sr_1_135?qid=1576373287&refinements=p_n_feature_four_browse-bin%3A15197002011&rnid=14284837011&s=alexa-skills&sr=1-135
Lifestyle : Pets & Animals	Pet Cat	1.0	1	https://www.amazon.com/Ashish-Pet-Cat/dp/B07P1RMBKG/ref=sr_1_136?qid=1576373287&refinements=p_n_feature_four_browse-bin%3A15197002011&rnid=14284837011&s=alexa-skills&sr=1-136
Lifestyle : Pets & Animals	Purina Pet Insights	None	None	https://www.amazon.com/Nestle-Purina-Pet-Insights/dp/B07P1NDT47/ref=sr_1_137?qid=1576373287&refinements=p_n_feature_four_browse-bin%3A15197002011&rnid=14284837011&s=alexa-skills&sr=1-137
Lifestyle : Pets & Animals	Pet Dog	5.0	1	https://www.amazon.com/Ashish-Pet-Dog/dp/B07NYKBKG5/ref=sr_1_138?qid=1576373287&refinements=p_n_feature_four_browse-bin%3A15197002011&rnid=14284837011&s=alexa-skills&sr=1-138
Lifestyle : Pets & Animals	Chiefs pig facts	5.0	1	https://www.amazon.com/d3data-llc-Chiefs-pig-facts/dp/B07NVJH7P5/ref=sr_1_139?qid=1576373287&refinements=p_n_feature_four_browse-bin%3A15197002011&rnid=14284837011&s=alexa-skills&sr=1-139
Lifestyle : Pets & Animals	Cat Bot	3.0	3	https://www.amazon.com/Alexa-Blueprints-User-Cat-Bot/dp/B07NCYJGKT/ref=sr_1_140?qid=1576373287&refinements=p_n_feature_four_browse-bin%3A15197002011&rnid=14284837011&s=alexa-skills&sr=1-140
Lifestyle : Pets & Animals	SunArc PetMatch	None	None	https://www.amazon.com/Mohammad-Abbas-SunArc-PetMatch/dp/B07N3Y8SW2/ref=sr_1_141?qid=1576373287&refinements=p_n_feature_four_browse-bin%3A15197002011&rnid=14284837011&s=alexa-skills&sr=1-141
Lifestyle : Pets & Animals	ball python facts	None	None	https://www.amazon.com/JAYKALOKAR-ball-python-facts/dp/B07MPB8GKP/ref=sr_1_142?qid=1576373287&refinements=p_n_feature_four_browse-bin%3A15197002011&rnid=14284837011&s=alexa-skills&sr=1-142
Lifestyle : Pets & Animals	Yabbit the Rabbit	None	None	https://www.amazon.com/The-BayldonLewis-Family-Yabbit-Rabbit/dp/B07MHC6CDH/ref=sr_1_143?qid=1576373287&refinements=p_n_feature_four_browse-bin%3A15197002011&rnid=14284837011&s=alexa-skills&sr=1-143
Lifestyle : Pets & Animals	Flower Screensaver for Echo Show	2.5	2	https://www.amazon.com/Flower-Screensaver-for-Echo-Show/dp/B07LD72KZ5/ref=sr_1_144?qid=1576373287&refinements=p_n_feature_four_browse-bin%3A15197002011&rnid=14284837011&s=alexa-skills&sr=1-144
Lifestyle : Pets & Animals	Dog facts	None	None	https://www.amazon.com/Sagar-Dog-facts/dp/B07LB3NWT5/ref=sr_1_145?qid=1576373294&refinements=p_n_feature_four_browse-bin%3A15197002011&rnid=14284837011&s=alexa-skills&sr=1-145
Lifestyle : Pets & Animals	Leonard The Frenchie	None	None	https://www.amazon.com/Maximo-Valdez-Leonard-The-Frenchie/dp/B07L9RNQNX/ref=sr_1_146?qid=1576373294&refinements=p_n_feature_four_browse-bin%3A15197002011&rnid=14284837011&s=alexa-skills&sr=1-146
Lifestyle : Pets & Animals	My Wagz	None	None	https://www.amazon.com/Wagz-My/dp/B07L9RCJXP/ref=sr_1_147?qid=1576373294&refinements=p_n_feature_four_browse-bin%3A15197002011&rnid=14284837011&s=alexa-skills&sr=1-147
Lifestyle : Pets & Animals	Bird Watching	None	None	https://www.amazon.com/SmartHouse-UG-Bird-Watching/dp/B07L8RJ9F3/ref=sr_1_148?qid=1576373294&refinements=p_n_feature_four_browse-bin%3A15197002011&rnid=14284837011&s=alexa-skills&sr=1-148
Lifestyle : Pets & Animals	Dev Dog Sayings	None	None	https://www.amazon.com/David-Kelly-Dev-Dog-Sayings/dp/B07L774GSR/ref=sr_1_149?qid=1576373294&refinements=p_n_feature_four_browse-bin%3A15197002011&rnid=14284837011&s=alexa-skills&sr=1-149
Lifestyle : Pets & Animals	Boy Dog Namer	None	None	https://www.amazon.com/Backyard-Rocket-Science-Productions-Namer/dp/B07L2BW5KZ/ref=sr_1_150?qid=1576373294&refinements=p_n_feature_four_browse-bin%3A15197002011&rnid=14284837011&s=alexa-skills&sr=1-150
Lifestyle : Pets & Animals	Girl Dog Namer	None	None	https://www.amazon.com/Backyard-Rocket-Science-Productions-Namer/dp/B07L2BMBL5/ref=sr_1_151?qid=1576373294&refinements=p_n_feature_four_browse-bin%3A15197002011&rnid=14284837011&s=alexa-skills&sr=1-151
Lifestyle : Pets & Animals	What pet?	None	None	https://www.amazon.com/Sarlianth-What-pet/dp/B07KYDTNDV/ref=sr_1_152?qid=1576373294&refinements=p_n_feature_four_browse-bin%3A15197002011&rnid=14284837011&s=alexa-skills&sr=1-152
Lifestyle : Pets & Animals	Crazy House Pets	None	None	https://www.amazon.com/Jess-Crazy-House-Pets/dp/B07KS9KNJZ/ref=sr_1_153?qid=1576373294&refinements=p_n_feature_four_browse-bin%3A15197002011&rnid=14284837011&s=alexa-skills&sr=1-153
Lifestyle : Pets & Animals	Dalmatian Facts	None	None	https://www.amazon.com/Rosana-Valencia-Dalmatian-Facts/dp/B07KS7JRDX/ref=sr_1_154?qid=1576373294&refinements=p_n_feature_four_browse-bin%3A15197002011&rnid=14284837011&s=alexa-skills&sr=1-154
Lifestyle : Pets & Animals	My dog ate chocolate	None	None	https://www.amazon.com/Ronoir-My-dog-ate-chocolate/dp/B07KK94FKV/ref=sr_1_155?qid=1576373294&refinements=p_n_feature_four_browse-bin%3A15197002011&rnid=14284837011&s=alexa-skills&sr=1-155
Lifestyle : Pets & Animals	Random Fox Pics	None	None	https://www.amazon.com/eliteprogrammingteam-Random-Fox-Pics/dp/B07KB4Q35B/ref=sr_1_156?qid=1576373294&refinements=p_n_feature_four_browse-bin%3A15197002011&rnid=14284837011&s=alexa-skills&sr=1-156
Lifestyle : Pets & Animals	Cattle Stampede	None	None	https://www.amazon.com/Doug-Slates-Cattle-Stampede/dp/B07K8LVWZC/ref=sr_1_157?qid=1576373294&refinements=p_n_feature_four_browse-bin%3A15197002011&rnid=14284837011&s=alexa-skills&sr=1-157
Lifestyle : Pets & Animals	Doctor Pupper	3.6	4	https://www.amazon.com/melochi-Doctor-Pupper/dp/B07K7CSRTP/ref=sr_1_158?qid=1576373294&refinements=p_n_feature_four_browse-bin%3A15197002011&rnid=14284837011&s=alexa-skills&sr=1-158
Lifestyle : Pets & Animals	A Cat Fact	4.1	35	https://www.amazon.com/Shakeeb-A-Cat-Fact/dp/B07K6QYV4V/ref=sr_1_159?qid=1576373294&refinements=p_n_feature_four_browse-bin%3A15197002011&rnid=14284837011&s=alexa-skills&sr=1-159
Lifestyle : Pets & Animals	Cows Mooing	None	None	https://www.amazon.com/Doug-Slates-Cows-Mooing/dp/B07K5TY84N/ref=sr_1_160?qid=1576373294&refinements=p_n_feature_four_browse-bin%3A15197002011&rnid=14284837011&s=alexa-skills&sr=1-160
Lifestyle : Pets & Animals	cat match	None	None	https://www.amazon.com/anq-cat-match/dp/B07K47LT5P/ref=sr_1_161?qid=1576373300&refinements=p_n_feature_four_browse-bin%3A15197002011&rnid=14284837011&s=alexa-skills&sr=1-161
Lifestyle : Pets & Animals	Know Your Doggie	None	None	https://www.amazon.com/Disha-Surana-Know-Your-Doggie/dp/B07K45MXRR/ref=sr_1_162?qid=1576373300&refinements=p_n_feature_four_browse-bin%3A15197002011&rnid=14284837011&s=alexa-skills&sr=1-162
Lifestyle : Pets & Animals	Pet Nutrients News	None	None	https://www.amazon.com/Kirschi-Pet-Nutrients-News/dp/B07K1KJS8W/ref=sr_1_163?qid=1576373300&refinements=p_n_feature_four_browse-bin%3A15197002011&rnid=14284837011&s=alexa-skills&sr=1-163
Lifestyle : Pets & Animals	Dog facts	None	None	https://www.amazon.com/happydays-Dog-facts/dp/B07K1CBKDV/ref=sr_1_164?qid=1576373300&refinements=p_n_feature_four_browse-bin%3A15197002011&rnid=14284837011&s=alexa-skills&sr=1-164
Lifestyle : Pets & Animals	Rabbit Safety Guide	None	None	https://www.amazon.com/Anan-Roderick-Th-Rabbit-Safety/dp/B07JZ945FK/ref=sr_1_165?qid=1576373300&refinements=p_n_feature_four_browse-bin%3A15197002011&rnid=14284837011&s=alexa-skills&sr=1-165
Lifestyle : Pets & Animals	Random Cat Pics	None	None	https://www.amazon.com/eliteprogrammingteam-Random-Cat-Pics/dp/B07JYGF99B/ref=sr_1_166?qid=1576373300&refinements=p_n_feature_four_browse-bin%3A15197002011&rnid=14284837011&s=alexa-skills&sr=1-166
Lifestyle : Pets & Animals	Random Dog Pics	None	None	https://www.amazon.com/eliteprogrammingteam-Random-Dog-Pics/dp/B07JYF2NP1/ref=sr_1_167?qid=1576373300&refinements=p_n_feature_four_browse-bin%3A15197002011&rnid=14284837011&s=alexa-skills&sr=1-167
Lifestyle : Pets & Animals	Animal Attacks	None	None	https://www.amazon.com/ButtonPushApps-Animal-Attacks/dp/B07JY94WTL/ref=sr_1_168?qid=1576373300&refinements=p_n_feature_four_browse-bin%3A15197002011&rnid=14284837011&s=alexa-skills&sr=1-168
Lifestyle : Pets & Animals	random pet name one	None	None	https://www.amazon.com/andreylaz-random-pet-name-one/dp/B07JX5D3SJ/ref=sr_1_169?qid=1576373300&refinements=p_n_feature_four_browse-bin%3A15197002011&rnid=14284837011&s=alexa-skills&sr=1-169
Lifestyle : Pets & Animals	Beecies: A Collection of Bee Species	None	None	https://www.amazon.com/ThatsMyFace-Beecies-Collection-Bee-Species/dp/B07JVH2WK9/ref=sr_1_170?qid=1576373300&refinements=p_n_feature_four_browse-bin%3A15197002011&rnid=14284837011&s=alexa-skills&sr=1-170
Lifestyle : Pets & Animals	panda facts	4.6	3	https://www.amazon.com/kitty-panda-facts/dp/B07JR31DMK/ref=sr_1_171?qid=1576373300&refinements=p_n_feature_four_browse-bin%3A15197002011&rnid=14284837011&s=alexa-skills&sr=1-171
Lifestyle : Pets & Animals	10 Cat Facts	None	None	https://www.amazon.com/Lirin-10-Cat-Facts/dp/B07JQT4KQG/ref=sr_1_172?qid=1576373300&refinements=p_n_feature_four_browse-bin%3A15197002011&rnid=14284837011&s=alexa-skills&sr=1-172
Lifestyle : Pets & Animals	Dog Facts	None	None	https://www.amazon.com/Joseph-Lu-Dog-Facts/dp/B07JQHSQ56/ref=sr_1_173?qid=1576373300&refinements=p_n_feature_four_browse-bin%3A15197002011&rnid=14284837011&s=alexa-skills&sr=1-173
Lifestyle : Pets & Animals	Career_Decision	None	None	https://www.amazon.com/Nairit_11-Career_Decision/dp/B07JQ6VY3R/ref=sr_1_174?qid=1576373300&refinements=p_n_feature_four_browse-bin%3A15197002011&rnid=14284837011&s=alexa-skills&sr=1-174
Lifestyle : Pets & Animals	Pet Facts	None	None	https://www.amazon.com/Aditya-Pet-Facts/dp/B07JQ5CXN3/ref=sr_1_175?qid=1576373300&refinements=p_n_feature_four_browse-bin%3A15197002011&rnid=14284837011&s=alexa-skills&sr=1-175
Lifestyle : Pets & Animals	Follow the leatherback sea turtles	None	None	https://www.amazon.com/Follow-the-leatherback-sea-turtles/dp/B07JPCQ18C/ref=sr_1_176?qid=1576373300&refinements=p_n_feature_four_browse-bin%3A15197002011&rnid=14284837011&s=alexa-skills&sr=1-176
Lifestyle : Pets & Animals	Dog Finder	5.0	2	https://www.amazon.com/classicpickle-Dog-Finder/dp/B07JP98578/ref=sr_1_177?qid=1576373307&refinements=p_n_feature_four_browse-bin%3A15197002011&rnid=14284837011&s=alexa-skills&sr=1-177
Lifestyle : Pets & Animals	m. l. k. facts	None	None	https://www.amazon.com/Lenop-inc-m-l-facts/dp/B07JP74STB/ref=sr_1_178?qid=1576373307&refinements=p_n_feature_four_browse-bin%3A15197002011&rnid=14284837011&s=alexa-skills&sr=1-178
Lifestyle : Pets & Animals	Eggzo Egg Tracker	None	None	https://www.amazon.com/Raptor-Software-Eggzo-Egg-Tracker/dp/B07JN4DHSC/ref=sr_1_179?qid=1576373307&refinements=p_n_feature_four_browse-bin%3A15197002011&rnid=14284837011&s=alexa-skills&sr=1-179
Lifestyle : Pets & Animals	doggy facts	None	None	https://www.amazon.com/Lenop-inc-doggy-facts/dp/B07JMB39Y9/ref=sr_1_180?qid=1576373307&refinements=p_n_feature_four_browse-bin%3A15197002011&rnid=14284837011&s=alexa-skills&sr=1-180
Lifestyle : Pets & Animals	Cat Gospels	None	None	https://www.amazon.com/Khandelwal-online-Cat-Gospels/dp/B07JJKNDTV/ref=sr_1_181?qid=1576373307&refinements=p_n_feature_four_browse-bin%3A15197002011&rnid=14284837011&s=alexa-skills&sr=1-181
Lifestyle : Pets & Animals	Octopus Facts	None	None	https://www.amazon.com/Joseph-Lu-Octopus-Facts/dp/B07JJJQJ4L/ref=sr_1_182?qid=1576373307&refinements=p_n_feature_four_browse-bin%3A15197002011&rnid=14284837011&s=alexa-skills&sr=1-182
Lifestyle : Pets & Animals	Dog Costumes	5.0	1	https://www.amazon.com/Nate-Christiansen-Dog-Costumes/dp/B07JJJQFPF/ref=sr_1_183?qid=1576373307&refinements=p_n_feature_four_browse-bin%3A15197002011&rnid=14284837011&s=alexa-skills&sr=1-183
Lifestyle : Pets & Animals	lizard news	None	None	https://www.amazon.com/Lyzrds-Accounts-lizard-news/dp/B07JJ9RQBQ/ref=sr_1_184?qid=1576373307&refinements=p_n_feature_four_browse-bin%3A15197002011&rnid=14284837011&s=alexa-skills&sr=1-184
Lifestyle : Pets & Animals	american curl facts	None	None	https://www.amazon.com/jedichen-american-curl-facts/dp/B07JHXCSPH/ref=sr_1_185?qid=1576373307&refinements=p_n_feature_four_browse-bin%3A15197002011&rnid=14284837011&s=alexa-skills&sr=1-185
Lifestyle : Pets & Animals	motivate me	None	None	https://www.amazon.com/Lenop-inc-motivate-me/dp/B07JHGW2LV/ref=sr_1_186?qid=1576373307&refinements=p_n_feature_four_browse-bin%3A15197002011&rnid=14284837011&s=alexa-skills&sr=1-186
Lifestyle : Pets & Animals	Hungry Pup	None	None	https://www.amazon.com/Josue-Macias-Hungry-Pup/dp/B07JGZ3VS9/ref=sr_1_187?qid=1576373307&refinements=p_n_feature_four_browse-bin%3A15197002011&rnid=14284837011&s=alexa-skills&sr=1-187
Lifestyle : Pets & Animals	Jack Russell Terrier Facts	None	None	https://www.amazon.com/ConnorsFour-Jack-Russell-Terrier-Facts/dp/B07JG7MQY1/ref=sr_1_188?qid=1576373307&refinements=p_n_feature_four_browse-bin%3A15197002011&rnid=14284837011&s=alexa-skills&sr=1-188
Lifestyle : Pets & Animals	Pug Katsu Feed	None	None	https://www.amazon.com/yoolivia-Pug-Katsu-Feed/dp/B07JC2VTZP/ref=sr_1_189?qid=1576373307&refinements=p_n_feature_four_browse-bin%3A15197002011&rnid=14284837011&s=alexa-skills&sr=1-189
Lifestyle : Pets & Animals	Beekeeping Calculator	5.0	1	https://www.amazon.com/Magnus-Ullberg-Beekeeping-Calculator/dp/B07J57JTDB/ref=sr_1_190?qid=1576373307&refinements=p_n_feature_four_browse-bin%3A15197002011&rnid=14284837011&s=alexa-skills&sr=1-190
Lifestyle : Pets & Animals	Feline Facts	None	None	https://www.amazon.com/Jerry-From-The-Cape-Feline/dp/B07J3GT92M/ref=sr_1_191?qid=1576373307&refinements=p_n_feature_four_browse-bin%3A15197002011&rnid=14284837011&s=alexa-skills&sr=1-191
Lifestyle : Pets & Animals	Puppy Name	None	None	https://www.amazon.com/Gonzo-Federation-Puppy-Name/dp/B07J34VT14/ref=sr_1_192?qid=1576373307&refinements=p_n_feature_four_browse-bin%3A15197002011&rnid=14284837011&s=alexa-skills&sr=1-192
Lifestyle : Pets & Animals	Name my pup	2.5	2	https://www.amazon.com/Phoenix-IS-Name-my-pup/dp/B07J1SS6R1/ref=sr_1_193?qid=1576373313&refinements=p_n_feature_four_browse-bin%3A15197002011&rnid=14284837011&s=alexa-skills&sr=1-193
Lifestyle : Pets & Animals	penguin facts	None	None	https://www.amazon.com/pratik_ultron-penguin-facts/dp/B07HN4SDN2/ref=sr_1_194?qid=1576373313&refinements=p_n_feature_four_browse-bin%3A15197002011&rnid=14284837011&s=alexa-skills&sr=1-194
Lifestyle : Pets & Animals	petWALK - doors for pets	None	None	https://www.amazon.com/Petwalk-Solutions-GmbH-Co-KG/dp/B07HLJ8JW5/ref=sr_1_195?qid=1576373313&refinements=p_n_feature_four_browse-bin%3A15197002011&rnid=14284837011&s=alexa-skills&sr=1-195
Lifestyle : Pets & Animals	Dog Safety Guide	None	None	https://www.amazon.com/Anan-Roderick-Th-Safety-Guide/dp/B07HFT8JNK/ref=sr_1_196?qid=1576373313&refinements=p_n_feature_four_browse-bin%3A15197002011&rnid=14284837011&s=alexa-skills&sr=1-196
Lifestyle : Pets & Animals	Horse Facts	None	None	https://www.amazon.com/Joelene-Benzie-Horse-Facts/dp/B07H1T9K12/ref=sr_1_197?qid=1576373313&refinements=p_n_feature_four_browse-bin%3A15197002011&rnid=14284837011&s=alexa-skills&sr=1-197
Lifestyle : Pets & Animals	Chip Tracker	None	None	https://www.amazon.com/Sharpiro-Chip-Tracker/dp/B07H1SPCTS/ref=sr_1_198?qid=1576373313&refinements=p_n_feature_four_browse-bin%3A15197002011&rnid=14284837011&s=alexa-skills&sr=1-198
Lifestyle : Pets & Animals	Cat facts	None	None	https://www.amazon.com/Manan-Cat-facts/dp/B07GV72CNM/ref=sr_1_199?qid=1576373313&refinements=p_n_feature_four_browse-bin%3A15197002011&rnid=14284837011&s=alexa-skills&sr=1-199
Lifestyle : Pets & Animals	Wasp Simulator	None	None	https://www.amazon.com/oagNice-Wasp-Simulator/dp/B07GSZ6QPR/ref=sr_1_200?qid=1576373313&refinements=p_n_feature_four_browse-bin%3A15197002011&rnid=14284837011&s=alexa-skills&sr=1-200
Lifestyle : Pets & Animals	name	3.3	14	https://www.amazon.com/Kyle-name/dp/B07GFKD5W5/ref=sr_1_201?qid=1576373313&refinements=p_n_feature_four_browse-bin%3A15197002011&rnid=14284837011&s=alexa-skills&sr=1-201
Lifestyle : Pets & Animals	Rat fact	None	None	https://www.amazon.com/IIIT-Hyderabad-Rat-fact/dp/B07G31GX2G/ref=sr_1_202?qid=1576373313&refinements=p_n_feature_four_browse-bin%3A15197002011&rnid=14284837011&s=alexa-skills&sr=1-202
Lifestyle : Pets & Animals	Wild Animal Facts	None	None	https://www.amazon.com/Harish-Kotra-Wild-Animal-Facts/dp/B07FTCS8ZT/ref=sr_1_203?qid=1576373313&refinements=p_n_feature_four_browse-bin%3A15197002011&rnid=14284837011&s=alexa-skills&sr=1-203
Lifestyle : Pets & Animals	Random Animal Facts	None	None	https://www.amazon.com/kuesclues-Random-Animal-Facts/dp/B07FR9WY7G/ref=sr_1_204?qid=1576373313&refinements=p_n_feature_four_browse-bin%3A15197002011&rnid=14284837011&s=alexa-skills&sr=1-204
Lifestyle : Pets & Animals	Amazing Dog Facts	None	None	https://www.amazon.com/UgotaBigmouth-Production-Amazing-Dog-Facts/dp/B07FNF1RKN/ref=sr_1_205?qid=1576373313&refinements=p_n_feature_four_browse-bin%3A15197002011&rnid=14284837011&s=alexa-skills&sr=1-205
Lifestyle : Pets & Animals	fish world	None	None	https://www.amazon.com/Seedcube-Fish-World/dp/B07FL7LTCC/ref=sr_1_206?qid=1576373313&refinements=p_n_feature_four_browse-bin%3A15197002011&rnid=14284837011&s=alexa-skills&sr=1-206
Lifestyle : Pets & Animals	Cat Care Tips	None	None	https://www.amazon.com/B2B-Resource-Team-Care-Tips/dp/B07FF3PZRQ/ref=sr_1_207?qid=1576373313&refinements=p_n_feature_four_browse-bin%3A15197002011&rnid=14284837011&s=alexa-skills&sr=1-207
Lifestyle : Pets & Animals	coco the dog	None	None	https://www.amazon.com/Dynasty-coco-the-dog/dp/B07F668XMQ/ref=sr_1_208?qid=1576373313&refinements=p_n_feature_four_browse-bin%3A15197002011&rnid=14284837011&s=alexa-skills&sr=1-208
Lifestyle : Pets & Animals	Rabbit Facts	None	None	https://www.amazon.com/BlackLab-Games-Rabbit-Facts/dp/B07F3YLLWC/ref=sr_1_209?qid=1576373320&refinements=p_n_feature_four_browse-bin%3A15197002011&rnid=14284837011&s=alexa-skills&sr=1-209
Lifestyle : Pets & Animals	German Shepherd Facts	None	None	https://www.amazon.com/MikeInColorado-German-Shepherd-Facts/dp/B07F11SW2N/ref=sr_1_210?qid=1576373320&refinements=p_n_feature_four_browse-bin%3A15197002011&rnid=14284837011&s=alexa-skills&sr=1-210
Lifestyle : Pets & Animals	Doggo me!	None	None	https://www.amazon.com/Mark-Fullmer-Doggo-me/dp/B07DYKXW8N/ref=sr_1_211?qid=1576373320&refinements=p_n_feature_four_browse-bin%3A15197002011&rnid=14284837011&s=alexa-skills&sr=1-211
Lifestyle : Pets & Animals	Paw Pal	None	None	https://www.amazon.com/Tyler-Hamilton-Paw-Pal/dp/B07DPGYQQ7/ref=sr_1_212?qid=1576373320&refinements=p_n_feature_four_browse-bin%3A15197002011&rnid=14284837011&s=alexa-skills&sr=1-212
Lifestyle : Pets & Animals	Best Pet Dog German Shepherd	None	None	https://www.amazon.com/Best-Pet-Dog-German-Shepherd/dp/B07DNX86SJ/ref=sr_1_213?qid=1576373320&refinements=p_n_feature_four_browse-bin%3A15197002011&rnid=14284837011&s=alexa-skills&sr=1-213
Lifestyle : Pets & Animals	Call of the Wild	None	None	https://www.amazon.com/Patrice-Porter-Call-the-Wild/dp/B07DNVF1N5/ref=sr_1_214?qid=1576373320&refinements=p_n_feature_four_browse-bin%3A15197002011&rnid=14284837011&s=alexa-skills&sr=1-214
Lifestyle : Pets & Animals	Best Dog Pets Dachshund	4.0	1	https://www.amazon.com/Steven-Doornbos-Best-Pets-Dachshund/dp/B07DNG5KH5/ref=sr_1_215?qid=1576373320&refinements=p_n_feature_four_browse-bin%3A15197002011&rnid=14284837011&s=alexa-skills&sr=1-215
Lifestyle : Pets & Animals	Pet Killing Plants	None	None	https://www.amazon.com/Steven-Doornbos-Pet-Killing-Plants/dp/B07DN8W9V8/ref=sr_1_216?qid=1576373320&refinements=p_n_feature_four_browse-bin%3A15197002011&rnid=14284837011&s=alexa-skills&sr=1-216
Lifestyle : Pets & Animals	Best Dog Pets Beagle	None	None	https://www.amazon.com/Steven-Doornbos-Best-Pets-Beagle/dp/B07DLQKTC3/ref=sr_1_217?qid=1576373320&refinements=p_n_feature_four_browse-bin%3A15197002011&rnid=14284837011&s=alexa-skills&sr=1-217
Lifestyle : Pets & Animals	Cat Facts: Fun App For All Cat Lovers	None	None	https://www.amazon.com/Cat-Facts-Fun-App-Lovers/dp/B07DL99DXG/ref=sr_1_218?qid=1576373320&refinements=p_n_feature_four_browse-bin%3A15197002011&rnid=14284837011&s=alexa-skills&sr=1-218
Lifestyle : Pets & Animals	Unicorn Facts	3.9	8	https://www.amazon.com/Envy-Eden-Unicorn-Facts/dp/B07DL8X97K/ref=sr_1_219?qid=1576373320&refinements=p_n_feature_four_browse-bin%3A15197002011&rnid=14284837011&s=alexa-skills&sr=1-219
Lifestyle : Pets & Animals	Shark Facts: Fun App For All Shark Lovers	None	None	https://www.amazon.com/Shark-Facts-Fun-App-Lovers/dp/B07DL5P2LV/ref=sr_1_220?qid=1576373320&refinements=p_n_feature_four_browse-bin%3A15197002011&rnid=14284837011&s=alexa-skills&sr=1-220
Lifestyle : Pets & Animals	Best Dog Pets Bulldog	None	None	https://www.amazon.com/Steven-Doornbos-Best-Pets-Bulldog/dp/B07DL4VYHR/ref=sr_1_221?qid=1576373320&refinements=p_n_feature_four_browse-bin%3A15197002011&rnid=14284837011&s=alexa-skills&sr=1-221
Lifestyle : Pets & Animals	Best Dog Pets Boxer	None	None	https://www.amazon.com/Steven-Doornbos-Best-Pets-Boxer/dp/B07DL39W5H/ref=sr_1_222?qid=1576373320&refinements=p_n_feature_four_browse-bin%3A15197002011&rnid=14284837011&s=alexa-skills&sr=1-222
Lifestyle : Pets & Animals	Robin Song	None	None	https://www.amazon.com/AIMagnify-Robin-Song/dp/B07DK8C57R/ref=sr_1_223?qid=1576373320&refinements=p_n_feature_four_browse-bin%3A15197002011&rnid=14284837011&s=alexa-skills&sr=1-223
Lifestyle : Pets & Animals	Beagle Facts: Fun App For All Beagle Lovers	None	None	https://www.amazon.com/Beagle-Facts-Fun-App-Lovers/dp/B07DH6Y15J/ref=sr_1_224?qid=1576373320&refinements=p_n_feature_four_browse-bin%3A15197002011&rnid=14284837011&s=alexa-skills&sr=1-224
Lifestyle : Pets & Animals	Dog Facts: Fun App For All Dog Lovers	2.0	1	https://www.amazon.com/Dog-Facts-Fun-App-Lovers/dp/B07DGTWYDL/ref=sr_1_225?qid=1576373327&refinements=p_n_feature_four_browse-bin%3A15197002011&rnid=14284837011&s=alexa-skills&sr=1-225
Lifestyle : Pets & Animals	Blackbird Song	None	None	https://www.amazon.com/AIMagnify-Blackbird-Song/dp/B07DGD1BDH/ref=sr_1_226?qid=1576373327&refinements=p_n_feature_four_browse-bin%3A15197002011&rnid=14284837011&s=alexa-skills&sr=1-226
Lifestyle : Pets & Animals	Elephant Facts: Fun Facts About Elephants	5.0	1	https://www.amazon.com/Elephant-Facts-Fun-About-Elephants/dp/B07DG15MPL/ref=sr_1_227?qid=1576373327&refinements=p_n_feature_four_browse-bin%3A15197002011&rnid=14284837011&s=alexa-skills&sr=1-227
Lifestyle : Pets & Animals	Song Thrush	None	None	https://www.amazon.com/AIMagnify-Song-Thrush/dp/B07DFKCTMX/ref=sr_1_228?qid=1576373327&refinements=p_n_feature_four_browse-bin%3A15197002011&rnid=14284837011&s=alexa-skills&sr=1-228
Lifestyle : Pets & Animals	Bird Call	2.7	3	https://www.amazon.com/CampfireBros-Bird-Call/dp/B07DF4QM3H/ref=sr_1_229?qid=1576373327&refinements=p_n_feature_four_browse-bin%3A15197002011&rnid=14284837011&s=alexa-skills&sr=1-229
Lifestyle : Pets & Animals	Pug Life: Fun App For All Pug Lovers	None	None	https://www.amazon.com/Pug-Life-Fun-App-Lovers/dp/B07DC2XLQB/ref=sr_1_230?qid=1576373327&refinements=p_n_feature_four_browse-bin%3A15197002011&rnid=14284837011&s=alexa-skills&sr=1-230
Lifestyle : Pets & Animals	My Dog Training Podcast	None	None	https://www.amazon.com/McCann-Professional-Dog-Trainers-Training/dp/B07DBGZJC2/ref=sr_1_231?qid=1576373327&refinements=p_n_feature_four_browse-bin%3A15197002011&rnid=14284837011&s=alexa-skills&sr=1-231
Lifestyle : Pets & Animals	Doggo Facts	None	None	https://www.amazon.com/PhillStack-Doggo-Facts/dp/B07D8J8G9Y/ref=sr_1_232?qid=1576373327&refinements=p_n_feature_four_browse-bin%3A15197002011&rnid=14284837011&s=alexa-skills&sr=1-232
Lifestyle : Pets & Animals	Cat Haikus	None	None	https://www.amazon.com/ChronicNonsense-Cat-Haikus/dp/B07D8HHS8R/ref=sr_1_233?qid=1576373327&refinements=p_n_feature_four_browse-bin%3A15197002011&rnid=14284837011&s=alexa-skills&sr=1-233
Lifestyle : Pets & Animals	Best Veterinarian Las Vegas Nearby	None	None	https://www.amazon.com/Best-Veterinarian-Las-Vegas-Nearby/dp/B07D7QQW4V/ref=sr_1_234?qid=1576373327&refinements=p_n_feature_four_browse-bin%3A15197002011&rnid=14284837011&s=alexa-skills&sr=1-234
Lifestyle : Pets & Animals	Tinki Academy	None	None	https://www.amazon.com/Dotalpha-Tinki-Academy/dp/B07D5KB1L5/ref=sr_1_235?qid=1576373327&refinements=p_n_feature_four_browse-bin%3A15197002011&rnid=14284837011&s=alexa-skills&sr=1-235
Lifestyle : Pets & Animals	Pet at Home	5.0	1	https://www.amazon.com/iPATROL-Inc-Pet-at-Home/dp/B07D585YHG/ref=sr_1_236?qid=1576373327&refinements=p_n_feature_four_browse-bin%3A15197002011&rnid=14284837011&s=alexa-skills&sr=1-236
Lifestyle : Pets & Animals	Hungry Paws	None	None	https://www.amazon.com/Chattative-Hungry-Paws/dp/B07D4RQT2M/ref=sr_1_237?qid=1576373327&refinements=p_n_feature_four_browse-bin%3A15197002011&rnid=14284837011&s=alexa-skills&sr=1-237
Lifestyle : Pets & Animals	Awesome Animal Quiz	None	None	https://www.amazon.com/Arya-P-Awesome-Animal-Quiz/dp/B07D3CPR4K/ref=sr_1_238?qid=1576373327&refinements=p_n_feature_four_browse-bin%3A15197002011&rnid=14284837011&s=alexa-skills&sr=1-238
Lifestyle : Pets & Animals	Top nineteen Dog Training Tips	None	None	https://www.amazon.com/Top-nineteen-Dog-Training-Tips/dp/B07D32G7VQ/ref=sr_1_239?qid=1576373327&refinements=p_n_feature_four_browse-bin%3A15197002011&rnid=14284837011&s=alexa-skills&sr=1-239
Lifestyle : Pets & Animals	Red Pandazine News Briefing	None	None	https://www.amazon.com/J%C3%BCrgen-Breitenbaumer-Pandazine-News-Briefing/dp/B07D23Z5ZZ/ref=sr_1_240?qid=1576373327&refinements=p_n_feature_four_browse-bin%3A15197002011&rnid=14284837011&s=alexa-skills&sr=1-240
Lifestyle : Pets & Animals	Dog Trainer Quick Tips	None	None	https://www.amazon.com/Debby-Bose-Trainer-Quick-Tips/dp/B07D13N7C3/ref=sr_1_241?qid=1576373335&refinements=p_n_feature_four_browse-bin%3A15197002011&rnid=14284837011&s=alexa-skills&sr=1-241
Lifestyle : Pets & Animals	Adoptable Friends	None	None	https://www.amazon.com/cwp-llc-Adoptable-Friends/dp/B07CRPHGL7/ref=sr_1_242?qid=1576373335&refinements=p_n_feature_four_browse-bin%3A15197002011&rnid=14284837011&s=alexa-skills&sr=1-242
Lifestyle : Pets & Animals	#Pugchat	None	None	https://www.amazon.com/DrewSK-Tech-Pugchat/dp/B07CQZMXF9/ref=sr_1_243?qid=1576373335&refinements=p_n_feature_four_browse-bin%3A15197002011&rnid=14284837011&s=alexa-skills&sr=1-243
Lifestyle : Pets & Animals	Amazing Cat Facts	None	None	https://www.amazon.com/Abe-Niang-Amazing-Cat-Facts/dp/B07CQRFKSC/ref=sr_1_244?qid=1576373335&refinements=p_n_feature_four_browse-bin%3A15197002011&rnid=14284837011&s=alexa-skills&sr=1-244
Lifestyle : Pets & Animals	Wagz	None	None	https://www.amazon.com/Wagz-Inc/dp/B07C88MQ8K/ref=sr_1_245?qid=1576373335&refinements=p_n_feature_four_browse-bin%3A15197002011&rnid=14284837011&s=alexa-skills&sr=1-245
Lifestyle : Pets & Animals	puppy prayers	3.0	2	https://www.amazon.com/dortronx-puppy-prayers/dp/B07C1176R2/ref=sr_1_246?qid=1576373335&refinements=p_n_feature_four_browse-bin%3A15197002011&rnid=14284837011&s=alexa-skills&sr=1-246
Lifestyle : Pets & Animals	Dog Mushing News	None	None	https://www.amazon.com/Daniel-Lent-Dog-Mushing-News/dp/B07BKMW385/ref=sr_1_247?qid=1576373335&refinements=p_n_feature_four_browse-bin%3A15197002011&rnid=14284837011&s=alexa-skills&sr=1-247
Lifestyle : Pets & Animals	pet diary - teaches pet owner obligations	None	None	https://www.amazon.com/pet-diary-teaches-owner-obligations/dp/B07BJN84XW/ref=sr_1_248?qid=1576373335&refinements=p_n_feature_four_browse-bin%3A15197002011&rnid=14284837011&s=alexa-skills&sr=1-248
Lifestyle : Pets & Animals	Puppy Facts	None	None	https://www.amazon.com/William-Yen-Puppy-Facts/dp/B07B4XTNHT/ref=sr_1_249?qid=1576373335&refinements=p_n_feature_four_browse-bin%3A15197002011&rnid=14284837011&s=alexa-skills&sr=1-249
Lifestyle : Pets & Animals	piggy wiggy	None	None	https://www.amazon.com/Peter-Grainger-piggy-wiggy/dp/B07B28ZNZX/ref=sr_1_250?qid=1576373335&refinements=p_n_feature_four_browse-bin%3A15197002011&rnid=14284837011&s=alexa-skills&sr=1-250
Lifestyle : Pets & Animals	Pet Center	None	None	https://www.amazon.com/Mage-Pet-Center/dp/B07B26KNDD/ref=sr_1_251?qid=1576373335&refinements=p_n_feature_four_browse-bin%3A15197002011&rnid=14284837011&s=alexa-skills&sr=1-251
Lifestyle : Pets & Animals	Doggo Facts	None	None	https://www.amazon.com/Stark-Inc-Doggo-Facts/dp/B079Z7B2ZR/ref=sr_1_252?qid=1576373335&refinements=p_n_feature_four_browse-bin%3A15197002011&rnid=14284837011&s=alexa-skills&sr=1-252
Lifestyle : Pets & Animals	Pet Care	None	None	https://www.amazon.com/Phong-Tran-Pet-Care/dp/B079R6BXL7/ref=sr_1_253?qid=1576373335&refinements=p_n_feature_four_browse-bin%3A15197002011&rnid=14284837011&s=alexa-skills&sr=1-253
Lifestyle : Pets & Animals	Beekeeping	3.0	4	https://www.amazon.com/Long-Lane-Honey-Bee-Farms/dp/B079BKMX2K/ref=sr_1_254?qid=1576373335&refinements=p_n_feature_four_browse-bin%3A15197002011&rnid=14284837011&s=alexa-skills&sr=1-254
Lifestyle : Pets & Animals	Breed Me	None	None	https://www.amazon.com/MotherofallGeeks-Breed-Me/dp/B0768BMJG5/ref=sr_1_255?qid=1576373335&refinements=p_n_feature_four_browse-bin%3A15197002011&rnid=14284837011&s=alexa-skills&sr=1-255
Lifestyle : Pets & Animals	Random Dog Name	3.0	1	https://www.amazon.com/Neil-Busse-Random-Dog-Name/dp/B074M2WSCF/ref=sr_1_256?qid=1576373335&refinements=p_n_feature_four_browse-bin%3A15197002011&rnid=14284837011&s=alexa-skills&sr=1-256
Lifestyle : Pets & Animals	Kevin's Cats	None	None	https://www.amazon.com/Individual-Kevins-Cats/dp/B074CQ17SK/ref=sr_1_257?qid=1576373342&refinements=p_n_feature_four_browse-bin%3A15197002011&rnid=14284837011&s=alexa-skills&sr=1-257
Lifestyle : Pets & Animals	Dog Friendly Vineyards	None	None	https://www.amazon.com/Cork-Hounds-LLC-Friendly-Vineyards/dp/B073WQ2HVF/ref=sr_1_258?qid=1576373342&refinements=p_n_feature_four_browse-bin%3A15197002011&rnid=14284837011&s=alexa-skills&sr=1-258
Lifestyle : Pets & Animals	Pet Decision Maker	None	None	https://www.amazon.com/leet-Pet-Decision-Maker/dp/B073VYBW7N/ref=sr_1_259?qid=1576373342&refinements=p_n_feature_four_browse-bin%3A15197002011&rnid=14284837011&s=alexa-skills&sr=1-259
Lifestyle : Pets & Animals	Dog Data - track food, walks, and more	3.7	133	https://www.amazon.com/Dog-Data-track-food-walks/dp/B073Q7ND32/ref=sr_1_260?qid=1576373342&refinements=p_n_feature_four_browse-bin%3A15197002011&rnid=14284837011&s=alexa-skills&sr=1-260
Lifestyle : Pets & Animals	Pet Walker	1.0	1	https://www.amazon.com/Autolycus-Technology-LLC-Pet-Walker/dp/B072J7KSM2/ref=sr_1_261?qid=1576373342&refinements=p_n_feature_four_browse-bin%3A15197002011&rnid=14284837011&s=alexa-skills&sr=1-261
Lifestyle : Pets & Animals	Richmond Dog Info	5.0	1	https://www.amazon.com/Tech-Em-Studios-Richmond-Info/dp/B0721TZQQ1/ref=sr_1_262?qid=1576373342&refinements=p_n_feature_four_browse-bin%3A15197002011&rnid=14284837011&s=alexa-skills&sr=1-262
Lifestyle : Pets & Animals	whale facts	None	None	https://www.amazon.com/Anita-Wong-whale-facts/dp/B071WB4LTN/ref=sr_1_263?qid=1576373342&refinements=p_n_feature_four_browse-bin%3A15197002011&rnid=14284837011&s=alexa-skills&sr=1-263
Lifestyle : Pets & Animals	Dog Facts	None	None	https://www.amazon.com/Anita-Technology-Dog-Facts/dp/B071KC2CFB/ref=sr_1_264?qid=1576373342&refinements=p_n_feature_four_browse-bin%3A15197002011&rnid=14284837011&s=alexa-skills&sr=1-264
Lifestyle : Pets & Animals	Horse Facts	None	None	https://www.amazon.com/Patrick-Rhodey-Horse-Facts/dp/B071JQ4HCT/ref=sr_1_265?qid=1576373342&refinements=p_n_feature_four_browse-bin%3A15197002011&rnid=14284837011&s=alexa-skills&sr=1-265
Lifestyle : Pets & Animals	dolphin facts	None	None	https://www.amazon.com/Angela-Wong-dolphin-facts/dp/B071FS3HCF/ref=sr_1_266?qid=1576373342&refinements=p_n_feature_four_browse-bin%3A15197002011&rnid=14284837011&s=alexa-skills&sr=1-266
Lifestyle : Pets & Animals	Teddy Doggy	5.0	1	https://www.amazon.com/Spock-Teddy-Doggy/dp/B071D5JYLT/ref=sr_1_267?qid=1576373342&refinements=p_n_feature_four_browse-bin%3A15197002011&rnid=14284837011&s=alexa-skills&sr=1-267
Lifestyle : Pets & Animals	animals intel	None	None	https://www.amazon.com/padmabala-animals-intel/dp/B071934TZ8/ref=sr_1_268?qid=1576373342&refinements=p_n_feature_four_browse-bin%3A15197002011&rnid=14284837011&s=alexa-skills&sr=1-268
Lifestyle : Pets & Animals	goldfish facts	None	None	https://www.amazon.com/Angela-Wong-goldfish-facts/dp/B06Y19WSPM/ref=sr_1_269?qid=1576373342&refinements=p_n_feature_four_browse-bin%3A15197002011&rnid=14284837011&s=alexa-skills&sr=1-269
Lifestyle : Pets & Animals	Doctor Mozzy	None	None	https://www.amazon.com/Louise-Yang-Doctor-Mozzy/dp/B06WRX9Z52/ref=sr_1_270?qid=1576373342&refinements=p_n_feature_four_browse-bin%3A15197002011&rnid=14284837011&s=alexa-skills&sr=1-270
Lifestyle : Pets & Animals	panda facts	None	None	https://www.amazon.com/Anita-Wong-panda-facts/dp/B01N6IEDTH/ref=sr_1_271?qid=1576373342&refinements=p_n_feature_four_browse-bin%3A15197002011&rnid=14284837011&s=alexa-skills&sr=1-271
Lifestyle : Pets & Animals	PeTalk	None	None	https://www.amazon.com/Tech-A-Potamus-PeTalk/dp/B01MZ1VCNX/ref=sr_1_272?qid=1576373342&refinements=p_n_feature_four_browse-bin%3A15197002011&rnid=14284837011&s=alexa-skills&sr=1-272
Lifestyle : Pets & Animals	Cat Feed Tracker	3.6	70	https://www.amazon.com/Kuske-Cat-Feed-Tracker/dp/B01MT3WAUS/ref=sr_1_273?qid=1576373349&refinements=p_n_feature_four_browse-bin%3A15197002011&rnid=14284837011&s=alexa-skills&sr=1-273
Lifestyle : Pets & Animals	PawBoost Lost and Found Pets	2.8	4	https://www.amazon.com/PawBoost-Lost-and-Found-Pets/dp/B01MQW0BC0/ref=sr_1_274?qid=1576373349&refinements=p_n_feature_four_browse-bin%3A15197002011&rnid=14284837011&s=alexa-skills&sr=1-274
Lifestyle : Pets & Animals	CatFacts	None	None	https://www.amazon.com/akkamal-CatFacts/dp/B01KPE6X56/ref=sr_1_275?qid=1576373349&refinements=p_n_feature_four_browse-bin%3A15197002011&rnid=14284837011&s=alexa-skills&sr=1-275
Lifestyle : Pets & Animals	Doctor Pooch	3.7	674	https://www.amazon.com/Dilli-Labs-LLC-Doctor-Pooch/dp/B01J0DFHBE/ref=sr_1_276?qid=1576373349&refinements=p_n_feature_four_browse-bin%3A15197002011&rnid=14284837011&s=alexa-skills&sr=1-276
Lifestyle : Pets & Animals	cat safety guide	3.6	3	https://www.amazon.com/Anan-Roderick-Th-safety-guide/dp/B07GZD7ZDN/ref=sr_1_277?qid=1576373349&refinements=p_n_feature_four_browse-bin%3A15197002011&rnid=14284837011&s=alexa-skills&sr=1-277
Lifestyle : Pets & Animals	PetMinder	2.9	2	https://www.amazon.com/Dominic-Miller-PetMinder/dp/B07387L4LW/ref=sr_1_278?qid=1576373349&refinements=p_n_feature_four_browse-bin%3A15197002011&rnid=14284837011&s=alexa-skills&sr=1-278
Lifestyle : Pets & Animals	My best dog	2.8	2	https://www.amazon.com/GingerBeans-My-best-dog/dp/B07N6852PM/ref=sr_1_279?qid=1576373349&refinements=p_n_feature_four_browse-bin%3A15197002011&rnid=14284837011&s=alexa-skills&sr=1-279
Lifestyle : Pets & Animals	Pet Tracker	3.2	5	https://www.amazon.com/Doug-Johnson-Pet-Tracker/dp/B077M2X3VS/ref=sr_1_280?qid=1576373349&refinements=p_n_feature_four_browse-bin%3A15197002011&rnid=14284837011&s=alexa-skills&sr=1-280
Lifestyle : Pets & Animals	Smart Home Guard Dog Barking SIMEON TUITT AUDIO	2.8	5	https://www.amazon.com/Smart-Guard-Barking-SIMEON-TUITT/dp/B07GJFLNZK/ref=sr_1_281?qid=1576373349&refinements=p_n_feature_four_browse-bin%3A15197002011&rnid=14284837011&s=alexa-skills&sr=1-281
Lifestyle : Pets & Animals	Dog Trainer	3.1	49	https://www.amazon.com/Balloon-Inc-Dog-Trainer/dp/B07BVJ1G1K/ref=sr_1_282?qid=1576373349&refinements=p_n_feature_four_browse-bin%3A15197002011&rnid=14284837011&s=alexa-skills&sr=1-282
Lifestyle : Pets & Animals	Hush Puppy	3.7	394	https://www.amazon.com/self-Hush-Puppy/dp/B07CV54PM2/ref=sr_1_283?qid=1576373349&refinements=p_n_feature_four_browse-bin%3A15197002011&rnid=14284837011&s=alexa-skills&sr=1-283
Lifestyle : Pets & Animals	Petcube	3.9	104	https://www.amazon.com/Petcube/dp/B0764MC1MD/ref=sr_1_284?qid=1576373349&refinements=p_n_feature_four_browse-bin%3A15197002011&rnid=14284837011&s=alexa-skills&sr=1-284
Lifestyle : Pets & Animals	The Hungry Cat	2.0	1	https://www.amazon.com/Voicebox-Apps-The-Hungry-Cat/dp/B07YB4GNDK/ref=sr_1_285?qid=1576373349&refinements=p_n_feature_four_browse-bin%3A15197002011&rnid=14284837011&s=alexa-skills&sr=1-285
Lifestyle : Pets & Animals	animal sounds	2.0	1	https://www.amazon.com/Sanjay-Singh-animal-sounds/dp/B07KG1N1KD/ref=sr_1_286?qid=1576373349&refinements=p_n_feature_four_browse-bin%3A15197002011&rnid=14284837011&s=alexa-skills&sr=1-286
Lifestyle : Pets & Animals	Keep Cats Out Your Garden Sound SIMEON TUITT AUDIO	2.0	1	https://www.amazon.com/Garden-Sound-SIMEON-TUITT-AUDIO/dp/B07GDFC9Z4/ref=sr_1_287?qid=1576373349&refinements=p_n_feature_four_browse-bin%3A15197002011&rnid=14284837011&s=alexa-skills&sr=1-287
Lifestyle : Pets & Animals	Watch Dog	2.0	1	https://www.amazon.com/Marc-Sander-Developer-Watch-Dog/dp/B07BFBFXZF/ref=sr_1_288?qid=1576373349&refinements=p_n_feature_four_browse-bin%3A15197002011&rnid=14284837011&s=alexa-skills&sr=1-288
Lifestyle : Pets & Animals	Bark Like A Dog	4.1	5195	https://www.amazon.com/Iguana-ASD-Bark-Like-Dog/dp/B07C1BKWKJ/ref=sr_1_289?qid=1576373355&refinements=p_n_feature_four_browse-bin%3A15197002011&rnid=14284837011&s=alexa-skills&sr=1-289
Lifestyle : Pets & Animals	Fish Aquarium Screensaver for Echo Show	3.4	4	https://www.amazon.com/Fish-Aquarium-Screensaver-Echo-Show/dp/B07X5G967T/ref=sr_1_290?qid=1576373355&refinements=p_n_feature_four_browse-bin%3A15197002011&rnid=14284837011&s=alexa-skills&sr=1-290
Lifestyle : Pets & Animals	Pet Buddy	2.0	2	https://www.amazon.com/Hero-Software-Pet-Buddy/dp/B0822RRZDT/ref=sr_1_291?qid=1576373355&refinements=p_n_feature_four_browse-bin%3A15197002011&rnid=14284837011&s=alexa-skills&sr=1-291
Lifestyle : Pets & Animals	Fascinating Cat Facts	2.0	2	https://www.amazon.com/UgotaBigmouth-Production-Fascinating-Cat-Facts/dp/B07FRFBT81/ref=sr_1_292?qid=1576373355&refinements=p_n_feature_four_browse-bin%3A15197002011&rnid=14284837011&s=alexa-skills&sr=1-292
Lifestyle : Pets & Animals	Guard Dog	2.8	207	https://www.amazon.com/Voice-Apps-LLC-Guard-Dog/dp/B06XC3D4KN/ref=sr_1_293?qid=1576373355&refinements=p_n_feature_four_browse-bin%3A15197002011&rnid=14284837011&s=alexa-skills&sr=1-293
Lifestyle : Pets & Animals	Big Bark	4.1	1250	https://www.amazon.com/Simmba-Big-Bark/dp/B07ZTR3DV2/ref=sr_1_294?qid=1576373355&refinements=p_n_feature_four_browse-bin%3A15197002011&rnid=14284837011&s=alexa-skills&sr=1-294
Lifestyle : Pets & Animals	Dogness	2.9	2	https://www.amazon.com/%E5%B9%BF%E4%B8%9C%E5%A4%9A%E5%B0%BC%E6%96%AF%E7%BD%91%E7%BB%9C%E7%A7%91%E6%8A%80%E6%9C%89%E9%99%90%E5%85%AC%E5%8F%B8-Dogness/dp/B07X1KTSMS/ref=sr_1_295?qid=1576373355&refinements=p_n_feature_four_browse-bin%3A15197002011&rnid=14284837011&s=alexa-skills&sr=1-295
Lifestyle : Pets & Animals	Koala Facts	1.0	1	https://www.amazon.com/Tinkering-Koala-Facts/dp/B07KR8DKK2/ref=sr_1_296?qid=1576373355&refinements=p_n_feature_four_browse-bin%3A15197002011&rnid=14284837011&s=alexa-skills&sr=1-296
Lifestyle : Pets & Animals	my dog	1.0	1	https://www.amazon.com/Vanshaj-Girotra-my-dog/dp/B07J2LDNMB/ref=sr_1_297?qid=1576373355&refinements=p_n_feature_four_browse-bin%3A15197002011&rnid=14284837011&s=alexa-skills&sr=1-297
Lifestyle : Pets & Animals	Pit Bull Facts: Fun App For All Pit Bull Lovers	3.1	2	https://www.amazon.com/Pit-Bull-Facts-Fun-Lovers/dp/B07DD9K3J2/ref=sr_1_298?qid=1576373355&refinements=p_n_feature_four_browse-bin%3A15197002011&rnid=14284837011&s=alexa-skills&sr=1-298
Lifestyle : Pets & Animals	Basic dog training commands	2.7	3	https://www.amazon.com/Karen-Smith-Basic-training-commands/dp/B07BVZ53ZT/ref=sr_1_299?qid=1576373355&refinements=p_n_feature_four_browse-bin%3A15197002011&rnid=14284837011&s=alexa-skills&sr=1-299
Lifestyle : Pets & Animals	Dog Breed Decider	1.0	1	https://www.amazon.com/mazeboy77-Dog-Breed-Decider/dp/B073SP8W8H/ref=sr_1_300?qid=1576373355&refinements=p_n_feature_four_browse-bin%3A15197002011&rnid=14284837011&s=alexa-skills&sr=1-300
Lifestyle : Pets & Animals	Good Dog	3.5	2	https://www.amazon.com/Matthew-Dreisbach-Good-Dog/dp/B0737KQ4LF/ref=sr_1_301?qid=1576373355&refinements=p_n_feature_four_browse-bin%3A15197002011&rnid=14284837011&s=alexa-skills&sr=1-301
Lifestyle : Pets & Animals	My Cat	3.8	42	https://www.amazon.com/seldomburn-My-Cat/dp/B07PT3WM6V/ref=sr_1_302?qid=1576373355&refinements=p_n_feature_four_browse-bin%3A15197002011&rnid=14284837011&s=alexa-skills&sr=1-302
Lifestyle : Pets & Animals	Box of Cats	4.2	16271	https://www.amazon.com/Sean-Simpson-Box-of-Cats/dp/B01GY2FTIK/ref=sr_1_303?qid=1576373355&refinements=p_n_feature_four_browse-bin%3A15197002011&rnid=14284837011&s=alexa-skills&sr=1-303
Lifestyle : Pets & Animals	Pick My Pet	1.0	2	https://www.amazon.com/PollySentrick-Pick-My-Pet/dp/B01JTT4JKO/ref=sr_1_304?qid=1576373355&refinements=p_n_feature_four_browse-bin%3A15197002011&rnid=14284837011&s=alexa-skills&sr=1-304
Lifestyle : Pets & Animals	Dog Talk	3.6	289	https://www.amazon.com/Gary-A-Stafford-Dog-Talk/dp/B07987H2T1/ref=sr_1_305?qid=1576373362&refinements=p_n_feature_four_browse-bin%3A15197002011&rnid=14284837011&s=alexa-skills&sr=1-305
Lifestyle : Pets & Animals	My Dog	3.6	1145	https://www.amazon.com/seldomburn-My-Dog/dp/B07G34R914/ref=sr_1_306?qid=1576373362&refinements=p_n_feature_four_browse-bin%3A15197002011&rnid=14284837011&s=alexa-skills&sr=1-306
Lifestyle : Pets & Animals	My Guard Dog	2.2	4	https://www.amazon.com/Pocket-Rocket-My-Guard-Dog/dp/B07XB71WKL/ref=sr_1_307?qid=1576373362&refinements=p_n_feature_four_browse-bin%3A15197002011&rnid=14284837011&s=alexa-skills&sr=1-307
Lifestyle : Pets & Animals	Stop Dog Barking Whistle Sound SIMEON TUITT AUDIO	1.0	3	https://www.amazon.com/Barking-Whistle-Sound-SIMEON-TUITT/dp/B07GDMHXZF/ref=sr_1_308?qid=1576373362&refinements=p_n_feature_four_browse-bin%3A15197002011&rnid=14284837011&s=alexa-skills&sr=1-308
Lifestyle : Pets & Animals	Dog Feed Tracker	1.0	5	https://www.amazon.com/Kuske-Dog-Feed-Tracker/dp/B01N6TOGF1/ref=sr_1_309?qid=1576373362&refinements=p_n_feature_four_browse-bin%3A15197002011&rnid=14284837011&s=alexa-skills&sr=1-309
Lifestyle : Pets & Animals	Buddy the Dog	3.5	30	https://www.amazon.com/mkbuddy-Buddy-the-Dog/dp/B01M13Z35T/ref=sr_1_310?qid=1576373362&refinements=p_n_feature_four_browse-bin%3A15197002011&rnid=14284837011&s=alexa-skills&sr=1-310
Done Mozilla/5.0 (Windows NT 6.1; WOW64; rv:54.0) Gecko/20100101 Firefox/71.0 20
